EESchema Schematic File Version 4
LIBS:waterelfv6-cache
EELAYER 26 0
EELAYER END
$Descr A4 11693 8268
encoding utf-8
Sheet 1 1
Title "WaterElf"
Date "2019-01-17"
Rev "6.0"
Comp "BitFIXit"
Comment1 ""
Comment2 ""
Comment3 ""
Comment4 ""
$EndDescr
$Comp
L Device:R R9
U 1 1 5BE748A4
P 8750 1500
F 0 "R9" H 8820 1546 50  0000 L CNN
F 1 "4.7K" H 8820 1455 50  0000 L CNN
F 2 "Resistor_SMD:R_0805_2012Metric_Pad1.15x1.40mm_HandSolder" V 8680 1500 50  0001 C CNN
F 3 "~" H 8750 1500 50  0001 C CNN
	1    8750 1500
	1    0    0    -1  
$EndComp
$Comp
L Device:R R10
U 1 1 5BE749E4
P 8750 2300
F 0 "R10" H 8820 2346 50  0000 L CNN
F 1 "10K" H 8820 2255 50  0000 L CNN
F 2 "Resistor_SMD:R_0805_2012Metric_Pad1.15x1.40mm_HandSolder" V 8680 2300 50  0001 C CNN
F 3 "~" H 8750 2300 50  0001 C CNN
	1    8750 2300
	1    0    0    -1  
$EndComp
$Comp
L Connector:RJ45 J3
U 1 1 5BE76545
P 2350 5950
F 0 "J3" H 2405 6617 50  0000 C CNN
F 1 "RJ45" H 2405 6526 50  0000 C CNN
F 2 "boardlibrary2:RJ45_Pulse_E5J88-00LJG2-L" V 2350 5975 50  0001 C CNN
F 3 "~" V 2350 5975 50  0001 C CNN
	1    2350 5950
	1    0    0    1   
$EndComp
$Comp
L waterelfv6-rescue:DMN1019-dk_Transistors-FETs-MOSFETs-Single Q5
U 1 1 5BE8446B
P 3250 6550
F 0 "Q5" H 3350 6700 60  0000 L CNN
F 1 "DMN1019" H 3350 6600 60  0000 L CNN
F 2 "Package_TO_SOT_SMD:SOT-23_Handsoldering" H 3450 6750 60  0001 L CNN
F 3 "https://www.diodes.com/assets/Datasheets/DMN1019USN.pdf" H 3450 6850 60  0001 L CNN
F 4 "DMN1019" H 3450 7050 60  0001 L CNN "MPN"
F 5 "Discrete Semiconductor Products" H 3450 7150 60  0001 L CNN "Category"
F 6 "Transistors - FETs, MOSFETs - Single" H 3450 7250 60  0001 L CNN "Family"
F 7 "https://www.diodes.com/assets/Datasheets/DMN1019USN.pdf" H 3450 7350 60  0001 L CNN "DK_Datasheet_Link"
F 8 "MOSFET N-CH 12V 9.4A SOT-23" H 3450 7550 60  0001 L CNN "Description"
F 9 "Diodes INC" H 3450 7650 60  0001 L CNN "Manufacturer"
F 10 "Active" H 3450 7750 60  0001 L CNN "Status"
	1    3250 6550
	1    0    0    -1  
$EndComp
$Comp
L Device:R R5
U 1 1 5BE84594
P 2950 6850
F 0 "R5" V 2743 6850 50  0000 C CNN
F 1 "100K" V 2834 6850 50  0000 C CNN
F 2 "Resistor_SMD:R_0805_2012Metric_Pad1.15x1.40mm_HandSolder" V 2880 6850 50  0001 C CNN
F 3 "~" H 2950 6850 50  0001 C CNN
	1    2950 6850
	-1   0    0    1   
$EndComp
Wire Wire Line
	3250 6350 2750 6350
$Comp
L waterelfv6-rescue:DMN1019-dk_Transistors-FETs-MOSFETs-Single Q6
U 1 1 5BE8A2FD
P 4100 6550
F 0 "Q6" H 4200 6700 60  0000 L CNN
F 1 "DMN1019" H 4200 6600 60  0000 L CNN
F 2 "Package_TO_SOT_SMD:SOT-23_Handsoldering" H 4300 6750 60  0001 L CNN
F 3 "https://www.diodes.com/assets/Datasheets/DMN1019USN.pdf" H 4300 6850 60  0001 L CNN
F 4 "DMN1019" H 4300 7050 60  0001 L CNN "MPN"
F 5 "Discrete Semiconductor Products" H 4300 7150 60  0001 L CNN "Category"
F 6 "Transistors - FETs, MOSFETs - Single" H 4300 7250 60  0001 L CNN "Family"
F 7 "https://www.diodes.com/assets/Datasheets/DMN1019USN.pdf" H 4300 7350 60  0001 L CNN "DK_Datasheet_Link"
F 8 "MOSFET N-CH 12V 9.4A SOT-23" H 4300 7550 60  0001 L CNN "Description"
F 9 "Diodes INC" H 4300 7650 60  0001 L CNN "Manufacturer"
F 10 "Active" H 4300 7750 60  0001 L CNN "Status"
	1    4100 6550
	1    0    0    -1  
$EndComp
Wire Wire Line
	4100 6350 4100 6250
Wire Wire Line
	4100 6250 2750 6250
$Comp
L power:GND #PWR012
U 1 1 5BE8A38D
P 3600 7150
F 0 "#PWR012" H 3600 6900 50  0001 C CNN
F 1 "GND" H 3605 6977 50  0000 C CNN
F 2 "" H 3600 7150 50  0001 C CNN
F 3 "" H 3600 7150 50  0001 C CNN
	1    3600 7150
	1    0    0    -1  
$EndComp
Wire Wire Line
	4100 6750 4100 7050
Wire Wire Line
	3600 7050 3250 7050
Wire Wire Line
	2950 6700 2950 6650
Wire Wire Line
	2950 7050 3250 7050
Connection ~ 3250 7050
$Comp
L Device:R R6
U 1 1 5BE8A500
P 3750 6850
F 0 "R6" V 3543 6850 50  0000 C CNN
F 1 "100K" V 3634 6850 50  0000 C CNN
F 2 "Resistor_SMD:R_0805_2012Metric_Pad1.15x1.40mm_HandSolder" V 3680 6850 50  0001 C CNN
F 3 "~" H 3750 6850 50  0001 C CNN
	1    3750 6850
	-1   0    0    1   
$EndComp
Wire Wire Line
	3250 6750 3250 7050
Wire Wire Line
	2950 7050 2950 7000
Wire Wire Line
	3600 7050 3750 7050
Wire Wire Line
	3750 7000 3750 7050
Connection ~ 3750 7050
Wire Wire Line
	3750 7050 4100 7050
Wire Wire Line
	3050 6150 2750 6150
$Comp
L power:+5V #PWR06
U 1 1 5BE8AB58
P 3050 5950
F 0 "#PWR06" H 3050 5800 50  0001 C CNN
F 1 "+5V" H 3050 6100 50  0000 C CNN
F 2 "" H 3050 5950 50  0001 C CNN
F 3 "" H 3050 5950 50  0001 C CNN
	1    3050 5950
	1    0    0    -1  
$EndComp
Wire Wire Line
	3050 5950 2750 5950
Connection ~ 3600 7050
Wire Wire Line
	3600 7150 3600 7050
NoConn ~ 2750 6050
$Comp
L Connector:RJ45 J2
U 1 1 5BE91F22
P 2350 3700
F 0 "J2" H 2405 4367 50  0000 C CNN
F 1 "RJ45" H 2405 4276 50  0000 C CNN
F 2 "boardlibrary2:RJ45_Pulse_E5J88-00LJG2-L" V 2350 3725 50  0001 C CNN
F 3 "~" V 2350 3725 50  0001 C CNN
	1    2350 3700
	1    0    0    1   
$EndComp
$Comp
L waterelfv6-rescue:DMN1019-dk_Transistors-FETs-MOSFETs-Single Q3
U 1 1 5BE91F2F
P 3250 4300
F 0 "Q3" H 3350 4450 60  0000 L CNN
F 1 "DMN1019" H 3350 4350 60  0000 L CNN
F 2 "Package_TO_SOT_SMD:SOT-23_Handsoldering" H 3450 4500 60  0001 L CNN
F 3 "https://www.diodes.com/assets/Datasheets/DMN1019USN.pdf" H 3450 4600 60  0001 L CNN
F 4 "DMN1019" H 3450 4800 60  0001 L CNN "MPN"
F 5 "Discrete Semiconductor Products" H 3450 4900 60  0001 L CNN "Category"
F 6 "Transistors - FETs, MOSFETs - Single" H 3450 5000 60  0001 L CNN "Family"
F 7 "https://www.diodes.com/assets/Datasheets/DMN1019USN.pdf" H 3450 5100 60  0001 L CNN "DK_Datasheet_Link"
F 8 "MOSFET N-CH 12V 9.4A SOT-23" H 3450 5300 60  0001 L CNN "Description"
F 9 "Diodes INC" H 3450 5400 60  0001 L CNN "Manufacturer"
F 10 "Active" H 3450 5500 60  0001 L CNN "Status"
	1    3250 4300
	1    0    0    -1  
$EndComp
$Comp
L Device:R R3
U 1 1 5BE91F35
P 2900 4600
F 0 "R3" V 2693 4600 50  0000 C CNN
F 1 "100K" V 2784 4600 50  0000 C CNN
F 2 "Resistor_SMD:R_0805_2012Metric_Pad1.15x1.40mm_HandSolder" V 2830 4600 50  0001 C CNN
F 3 "~" H 2900 4600 50  0001 C CNN
	1    2900 4600
	-1   0    0    1   
$EndComp
Wire Wire Line
	3250 4100 2750 4100
$Comp
L waterelfv6-rescue:DMN1019-dk_Transistors-FETs-MOSFETs-Single Q4
U 1 1 5BE91F4C
P 4100 4300
F 0 "Q4" H 4200 4450 60  0000 L CNN
F 1 "DMN1019" H 4200 4350 60  0000 L CNN
F 2 "Package_TO_SOT_SMD:SOT-23_Handsoldering" H 4300 4500 60  0001 L CNN
F 3 "https://www.diodes.com/assets/Datasheets/DMN1019USN.pdf" H 4300 4600 60  0001 L CNN
F 4 "DMN1019" H 4300 4800 60  0001 L CNN "MPN"
F 5 "Discrete Semiconductor Products" H 4300 4900 60  0001 L CNN "Category"
F 6 "Transistors - FETs, MOSFETs - Single" H 4300 5000 60  0001 L CNN "Family"
F 7 "https://www.diodes.com/assets/Datasheets/DMN1019USN.pdf" H 4300 5100 60  0001 L CNN "DK_Datasheet_Link"
F 8 "MOSFET N-CH 12V 9.4A SOT-23" H 4300 5300 60  0001 L CNN "Description"
F 9 "Diodes INC" H 4300 5400 60  0001 L CNN "Manufacturer"
F 10 "Active" H 4300 5500 60  0001 L CNN "Status"
	1    4100 4300
	1    0    0    -1  
$EndComp
Wire Wire Line
	4100 4100 4100 4000
$Comp
L power:GND #PWR011
U 1 1 5BE91F54
P 3600 4900
F 0 "#PWR011" H 3600 4650 50  0001 C CNN
F 1 "GND" H 3605 4727 50  0000 C CNN
F 2 "" H 3600 4900 50  0001 C CNN
F 3 "" H 3600 4900 50  0001 C CNN
	1    3600 4900
	1    0    0    -1  
$EndComp
Wire Wire Line
	4100 4500 4100 4800
Wire Wire Line
	3600 4800 3250 4800
Connection ~ 3250 4800
$Comp
L Device:R R4
U 1 1 5BE91F5F
P 3750 4600
F 0 "R4" V 3543 4600 50  0000 C CNN
F 1 "100K" V 3634 4600 50  0000 C CNN
F 2 "Resistor_SMD:R_0805_2012Metric_Pad1.15x1.40mm_HandSolder" V 3680 4600 50  0001 C CNN
F 3 "~" H 3750 4600 50  0001 C CNN
	1    3750 4600
	-1   0    0    1   
$EndComp
Wire Wire Line
	3250 4500 3250 4800
Wire Wire Line
	3600 4800 3750 4800
Wire Wire Line
	3750 4750 3750 4800
Connection ~ 3750 4800
Wire Wire Line
	3750 4800 4100 4800
Wire Wire Line
	3050 3900 2750 3900
$Comp
L power:+5V #PWR05
U 1 1 5BE91F72
P 3050 3700
F 0 "#PWR05" H 3050 3550 50  0001 C CNN
F 1 "+5V" H 3050 3850 50  0000 C CNN
F 2 "" H 3050 3700 50  0001 C CNN
F 3 "" H 3050 3700 50  0001 C CNN
	1    3050 3700
	1    0    0    -1  
$EndComp
Wire Wire Line
	3050 3700 2750 3700
Connection ~ 3600 4800
Wire Wire Line
	3600 4900 3600 4800
NoConn ~ 2750 3800
$Comp
L Connector:RJ45 J1
U 1 1 5BE926C8
P 2350 1500
F 0 "J1" H 2405 2167 50  0000 C CNN
F 1 "RJ45" H 2405 2076 50  0000 C CNN
F 2 "boardlibrary2:RJ45_Pulse_E5J88-00LJG2-L" V 2350 1525 50  0001 C CNN
F 3 "~" V 2350 1525 50  0001 C CNN
	1    2350 1500
	1    0    0    1   
$EndComp
$Comp
L Device:R R1
U 1 1 5BE926DB
P 2950 2400
F 0 "R1" V 2743 2400 50  0000 C CNN
F 1 "100K" V 2834 2400 50  0000 C CNN
F 2 "Resistor_SMD:R_0805_2012Metric_Pad1.15x1.40mm_HandSolder" V 2880 2400 50  0001 C CNN
F 3 "~" H 2950 2400 50  0001 C CNN
	1    2950 2400
	-1   0    0    1   
$EndComp
Text Notes 1550 1050 0    50   ~ 0
T568B
Text Notes 1450 1200 0    50   ~ 0
Orange/White
Text Notes 1450 1300 0    50   ~ 0
Orange
Text Notes 1450 1400 0    50   ~ 0
Green/White
Text Notes 1450 1500 0    50   ~ 0
Blue
Text Notes 1450 1600 0    50   ~ 0
Blue/White
Text Notes 1450 1700 0    50   ~ 0
Green
Text Notes 1450 1800 0    50   ~ 0
Brown/White
Text Notes 1450 1900 0    50   ~ 0
Brown
Wire Wire Line
	3250 1900 2750 1900
$Comp
L waterelfv6-rescue:DMN1019-dk_Transistors-FETs-MOSFETs-Single Q2
U 1 1 5BE926F2
P 4100 2100
F 0 "Q2" H 4200 2250 60  0000 L CNN
F 1 "DMN1019" H 4200 2150 60  0000 L CNN
F 2 "Package_TO_SOT_SMD:SOT-23_Handsoldering" H 4300 2300 60  0001 L CNN
F 3 "https://www.diodes.com/assets/Datasheets/DMN1019USN.pdf" H 4300 2400 60  0001 L CNN
F 4 "DMN1019" H 4300 2600 60  0001 L CNN "MPN"
F 5 "Discrete Semiconductor Products" H 4300 2700 60  0001 L CNN "Category"
F 6 "Transistors - FETs, MOSFETs - Single" H 4300 2800 60  0001 L CNN "Family"
F 7 "https://www.diodes.com/assets/Datasheets/DMN1019USN.pdf" H 4300 2900 60  0001 L CNN "DK_Datasheet_Link"
F 8 "MOSFET N-CH 12V 9.4A SOT-23" H 4300 3100 60  0001 L CNN "Description"
F 9 "Diodes INC" H 4300 3200 60  0001 L CNN "Manufacturer"
F 10 "Active" H 4300 3300 60  0001 L CNN "Status"
	1    4100 2100
	1    0    0    -1  
$EndComp
$Comp
L power:GND #PWR010
U 1 1 5BE926FA
P 3600 2700
F 0 "#PWR010" H 3600 2450 50  0001 C CNN
F 1 "GND" H 3605 2527 50  0000 C CNN
F 2 "" H 3600 2700 50  0001 C CNN
F 3 "" H 3600 2700 50  0001 C CNN
	1    3600 2700
	1    0    0    -1  
$EndComp
Wire Wire Line
	4100 2300 4100 2600
Wire Wire Line
	2950 2250 2950 2200
$Comp
L Device:R R2
U 1 1 5BE92705
P 3750 2400
F 0 "R2" V 3543 2400 50  0000 C CNN
F 1 "100K" V 3634 2400 50  0000 C CNN
F 2 "Resistor_SMD:R_0805_2012Metric_Pad1.15x1.40mm_HandSolder" V 3680 2400 50  0001 C CNN
F 3 "~" H 3750 2400 50  0001 C CNN
	1    3750 2400
	-1   0    0    1   
$EndComp
Wire Wire Line
	2950 2600 2950 2550
Wire Wire Line
	3600 2600 3750 2600
Wire Wire Line
	3750 2550 3750 2600
Connection ~ 3750 2600
Wire Wire Line
	3750 2600 4100 2600
Wire Wire Line
	3050 1700 2750 1700
$Comp
L power:+5V #PWR04
U 1 1 5BE92718
P 3050 1500
F 0 "#PWR04" H 3050 1350 50  0001 C CNN
F 1 "+5V" H 3050 1650 50  0000 C CNN
F 2 "" H 3050 1500 50  0001 C CNN
F 3 "" H 3050 1500 50  0001 C CNN
	1    3050 1500
	1    0    0    -1  
$EndComp
Wire Wire Line
	3050 1500 2750 1500
Connection ~ 3600 2600
Wire Wire Line
	3600 2700 3600 2600
Text Label 2800 1200 0    50   ~ 0
GND
Text Label 2800 1300 0    50   ~ 0
TX
Text Label 2800 1400 0    50   ~ 0
RX1
Text Label 2800 1500 0    50   ~ 0
5V
Text Label 2800 1600 0    50   ~ 0
NC
Text Label 2800 1700 0    50   ~ 0
3V
Text Label 2800 1800 0    50   ~ 0
PMP1
Text Label 2800 1900 0    50   ~ 0
SOL1
NoConn ~ 2750 1600
Text Label 2800 6350 0    50   ~ 0
SOL3
Text Label 2800 6250 0    50   ~ 0
PMP3
Text Label 2800 6150 0    50   ~ 0
3V
Text Label 2800 6050 0    50   ~ 0
NC
Text Label 2800 5950 0    50   ~ 0
5V
Text Label 2800 5850 0    50   ~ 0
RX3
Text Label 2800 5750 0    50   ~ 0
TX
Text Label 2800 5650 0    50   ~ 0
GND
Text Label 2800 4100 0    50   ~ 0
SOL2
Text Label 2800 4000 0    50   ~ 0
PMP2
Text Label 2800 3900 0    50   ~ 0
3V
Text Label 2800 3800 0    50   ~ 0
NC
Text Label 2800 3700 0    50   ~ 0
5V
Text Label 2800 3600 0    50   ~ 0
RX2
Text Label 2800 3500 0    50   ~ 0
TX
Text Label 2800 3400 0    50   ~ 0
GND
Wire Wire Line
	2750 5750 2800 5750
Wire Wire Line
	2800 5850 2750 5850
Wire Wire Line
	2800 3600 2750 3600
Wire Wire Line
	2750 3500 2800 3500
Wire Wire Line
	2800 1400 2750 1400
Wire Wire Line
	2750 1300 2800 1300
Text Label 6900 2700 0    50   ~ 0
5V
Wire Wire Line
	7250 2700 6900 2700
Text Label 5450 2500 0    50   ~ 0
PMPG3
Wire Wire Line
	5750 2500 5450 2500
Text Label 5450 2800 0    50   ~ 0
RX2
Text Label 5450 2700 0    50   ~ 0
RX3
Wire Wire Line
	5750 2600 5450 2600
Wire Wire Line
	5450 2700 5750 2700
Text Label 5450 2600 0    50   ~ 0
TX
Wire Wire Line
	5750 2800 5450 2800
Text Label 3450 4400 0    50   ~ 0
PMPG2
Text Label 2600 4400 0    50   ~ 0
SOLG2
Wire Wire Line
	3800 4400 3750 4400
Connection ~ 3750 4400
Wire Wire Line
	2950 4400 2900 4400
Connection ~ 2900 4400
Text Label 2650 2200 0    50   ~ 0
SOLG1
Text Label 3450 2200 0    50   ~ 0
PMPG1
Wire Wire Line
	2950 2200 2650 2200
Connection ~ 3750 2200
Wire Wire Line
	3450 2200 3750 2200
Wire Wire Line
	3750 2200 3750 2250
Wire Wire Line
	3750 2200 3800 2200
Wire Wire Line
	3750 4400 3750 4450
Wire Wire Line
	3750 4400 3450 4400
Wire Wire Line
	2900 4400 2900 4450
Wire Wire Line
	2900 4400 2600 4400
Text Label 3450 6650 0    50   ~ 0
PMPG3
Text Label 2650 6650 0    50   ~ 0
SOLG3
Wire Wire Line
	3800 6650 3750 6650
Wire Wire Line
	3750 6700 3750 6650
Connection ~ 3750 6650
Wire Wire Line
	3750 6650 3450 6650
Wire Wire Line
	2950 6650 2650 6650
Connection ~ 2950 6650
Wire Wire Line
	2900 4800 2900 4750
Wire Wire Line
	2900 4800 3250 4800
Text Label 5450 3000 0    50   ~ 0
SOLG3
Text Label 6900 3000 0    50   ~ 0
PMPG2
Wire Wire Line
	5750 3000 5450 3000
Wire Wire Line
	5450 2900 5750 2900
Text Label 5450 3600 0    50   ~ 0
SOLG1
Text Label 5450 2900 0    50   ~ 0
RX1
Text Label 6900 3200 0    50   ~ 0
SOLG2
Text Label 6900 3300 0    50   ~ 0
PMPG1
Wire Wire Line
	7250 3200 6900 3200
Wire Wire Line
	6900 3300 7250 3300
NoConn ~ 5750 2300
$Comp
L power:GND #PWR014
U 1 1 5BEFDABD
P 5200 2400
F 0 "#PWR014" H 5200 2150 50  0001 C CNN
F 1 "GND" H 5205 2227 50  0000 C CNN
F 2 "" H 5200 2400 50  0001 C CNN
F 3 "" H 5200 2400 50  0001 C CNN
	1    5200 2400
	1    0    0    -1  
$EndComp
Wire Wire Line
	5750 2400 5200 2400
Text Notes 9800 3300 0    50   ~ 0
To TPS2591\nLight Sensor
Text Notes 9800 4600 0    50   ~ 0
To pH\nModule
$Comp
L Connector:Conn_01x03_Male J6
U 1 1 5BEFFD58
P 9450 2250
F 0 "J6" H 9600 2100 50  0000 C CNN
F 1 "Conn_01x03_Male" H 9150 2100 50  0000 C CNN
F 2 "Connector_PinHeader_2.54mm:PinHeader_1x03_P2.54mm_Vertical" H 9450 2250 50  0001 C CNN
F 3 "~" H 9450 2250 50  0001 C CNN
	1    9450 2250
	-1   0    0    -1  
$EndComp
$Comp
L Connector:Conn_01x04_Male J8
U 1 1 5BEFFE5F
P 9450 4500
F 0 "J8" H 9600 4250 50  0000 C CNN
F 1 "Conn_01x04_Male" H 9150 4250 50  0000 C CNN
F 2 "Connector_PinHeader_2.54mm:PinHeader_1x04_P2.54mm_Vertical" H 9450 4500 50  0001 C CNN
F 3 "~" H 9450 4500 50  0001 C CNN
	1    9450 4500
	-1   0    0    -1  
$EndComp
$Comp
L Connector:Conn_01x03_Male J5
U 1 1 5BF000B7
P 9450 1350
F 0 "J5" H 9650 1200 50  0000 C CNN
F 1 "Conn_01x03_Male" H 9150 1200 50  0000 C CNN
F 2 "Connector_PinHeader_2.54mm:PinHeader_1x03_P2.54mm_Vertical" H 9450 1350 50  0001 C CNN
F 3 "~" H 9450 1350 50  0001 C CNN
	1    9450 1350
	-1   0    0    -1  
$EndComp
Text Notes 9800 2300 0    50   ~ 0
To AM2302\nHumid Sensor
Text Notes 9800 1400 0    50   ~ 0
To DS18B20\nTemp Sensor
Text Notes 9550 3000 0    50   ~ 0
Vin
Text Notes 9550 3100 0    50   ~ 0
GND
Text Notes 9550 3200 0    50   ~ 0
3vo
Text Notes 9550 3300 0    50   ~ 0
Int
Text Notes 9550 3400 0    50   ~ 0
SDA
Text Notes 9550 3500 0    50   ~ 0
SCL
Text Notes 9550 4400 0    50   ~ 0
GND
Text Notes 9550 4500 0    50   ~ 0
VCC
Text Notes 9550 4600 0    50   ~ 0
SDA
Text Notes 9550 4700 0    50   ~ 0
SCL
Text Notes 9550 2150 0    50   ~ 0
VCC
Text Notes 9550 2250 0    50   ~ 0
DATA
Text Notes 9550 2350 0    50   ~ 0
GND
Text Notes 9550 1250 0    50   ~ 0
GND
Text Notes 9550 1350 0    50   ~ 0
VCC
Text Notes 9550 1450 0    50   ~ 0
DATA
Wire Wire Line
	9250 2150 9200 2150
Wire Wire Line
	9200 2150 9200 1350
Wire Wire Line
	9250 2350 9150 2350
Wire Wire Line
	9150 2350 9150 1250
Wire Wire Line
	9150 1250 9250 1250
Wire Wire Line
	9250 1450 9050 1450
Wire Wire Line
	9050 1450 9050 1650
Wire Wire Line
	9050 1650 8750 1650
Wire Wire Line
	8750 2150 9200 2150
Connection ~ 9200 2150
Wire Wire Line
	9250 2250 9050 2250
Wire Wire Line
	9050 2250 9050 2450
Wire Wire Line
	9050 2450 8750 2450
NoConn ~ 5750 2100
$Comp
L power:+3V3 #PWR013
U 1 1 5BF20613
P 5200 2100
F 0 "#PWR013" H 5200 1950 50  0001 C CNN
F 1 "+3V3" H 5215 2273 50  0000 C CNN
F 2 "" H 5200 2100 50  0001 C CNN
F 3 "" H 5200 2100 50  0001 C CNN
	1    5200 2100
	1    0    0    -1  
$EndComp
Wire Wire Line
	5750 2200 5200 2200
Wire Wire Line
	5200 2200 5200 2100
$Comp
L power:+3V3 #PWR019
U 1 1 5BF22E95
P 8950 1050
F 0 "#PWR019" H 8950 900 50  0001 C CNN
F 1 "+3V3" H 8965 1223 50  0000 C CNN
F 2 "" H 8950 1050 50  0001 C CNN
F 3 "" H 8950 1050 50  0001 C CNN
	1    8950 1050
	1    0    0    -1  
$EndComp
Wire Wire Line
	8950 1050 8950 1350
Connection ~ 8950 1350
Wire Wire Line
	8950 1350 8750 1350
Wire Wire Line
	9200 2150 9200 3000
Wire Wire Line
	9200 3000 9250 3000
Wire Wire Line
	9250 3100 9150 3100
Wire Wire Line
	9150 3100 9150 2350
Connection ~ 9150 2350
Wire Wire Line
	9150 3100 9150 4400
Wire Wire Line
	9150 4400 9250 4400
Wire Wire Line
	9250 4500 9200 4500
$Comp
L power:GND #PWR020
U 1 1 5BF30DE1
P 9150 5000
F 0 "#PWR020" H 9150 4750 50  0001 C CNN
F 1 "GND" H 9155 4827 50  0000 C CNN
F 2 "" H 9150 5000 50  0001 C CNN
F 3 "" H 9150 5000 50  0001 C CNN
	1    9150 5000
	1    0    0    -1  
$EndComp
Wire Wire Line
	9150 5000 9150 4400
Connection ~ 9150 4400
Wire Wire Line
	9250 4600 9100 4600
Wire Wire Line
	6800 4600 6800 3600
Wire Wire Line
	6800 3600 7250 3600
Wire Wire Line
	9100 4600 9100 3400
Wire Wire Line
	9100 3400 9250 3400
Connection ~ 9100 4600
Wire Wire Line
	9250 3500 9050 3500
Wire Wire Line
	9050 3500 9050 4700
Connection ~ 9050 4700
Wire Wire Line
	9050 4700 9250 4700
Wire Wire Line
	8750 2450 8200 2450
Wire Wire Line
	6900 3100 7250 3100
Wire Wire Line
	8750 1650 8200 1650
Wire Wire Line
	6900 3000 7250 3000
Wire Wire Line
	7250 3400 6900 3400
Wire Wire Line
	5750 3600 5450 3600
NoConn ~ 5750 3500
NoConn ~ 5750 3400
NoConn ~ 5750 3300
NoConn ~ 5750 3200
NoConn ~ 5750 3100
NoConn ~ 7250 2500
NoConn ~ 7250 2600
NoConn ~ 7250 2800
NoConn ~ 7250 2900
NoConn ~ 9250 3200
NoConn ~ 9250 3300
$Comp
L Device:R R7
U 1 1 5BF91CF4
P 7800 4100
F 0 "R7" H 7870 4146 50  0000 L CNN
F 1 "4.7K" H 7870 4055 50  0000 L CNN
F 2 "Resistor_SMD:R_0805_2012Metric_Pad1.15x1.40mm_HandSolder" V 7730 4100 50  0001 C CNN
F 3 "~" H 7800 4100 50  0001 C CNN
	1    7800 4100
	1    0    0    -1  
$EndComp
$Comp
L Device:R R8
U 1 1 5BF91DC0
P 8100 4100
F 0 "R8" H 8170 4146 50  0000 L CNN
F 1 "4.7K" H 8170 4055 50  0000 L CNN
F 2 "Resistor_SMD:R_0805_2012Metric_Pad1.15x1.40mm_HandSolder" V 8030 4100 50  0001 C CNN
F 3 "~" H 8100 4100 50  0001 C CNN
	1    8100 4100
	1    0    0    -1  
$EndComp
$Comp
L power:GND #PWR09
U 1 1 5BF9F7F4
P 3350 5650
F 0 "#PWR09" H 3350 5400 50  0001 C CNN
F 1 "GND" H 3355 5477 50  0000 C CNN
F 2 "" H 3350 5650 50  0001 C CNN
F 3 "" H 3350 5650 50  0001 C CNN
	1    3350 5650
	1    0    0    -1  
$EndComp
Wire Wire Line
	2750 5650 3350 5650
$Comp
L power:GND #PWR08
U 1 1 5BFA44BD
P 3350 3400
F 0 "#PWR08" H 3350 3150 50  0001 C CNN
F 1 "GND" H 3355 3227 50  0000 C CNN
F 2 "" H 3350 3400 50  0001 C CNN
F 3 "" H 3350 3400 50  0001 C CNN
	1    3350 3400
	1    0    0    -1  
$EndComp
Wire Wire Line
	2750 3400 3350 3400
$Comp
L power:GND #PWR07
U 1 1 5BFA924F
P 3350 1200
F 0 "#PWR07" H 3350 950 50  0001 C CNN
F 1 "GND" H 3355 1027 50  0000 C CNN
F 2 "" H 3350 1200 50  0001 C CNN
F 3 "" H 3350 1200 50  0001 C CNN
	1    3350 1200
	1    0    0    -1  
$EndComp
Wire Wire Line
	2750 1200 3350 1200
Connection ~ 8750 2450
Connection ~ 8750 1650
Wire Wire Line
	8950 1350 9200 1350
Connection ~ 9200 1350
Wire Wire Line
	9200 1350 9250 1350
Connection ~ 9200 3000
Connection ~ 9150 3100
Wire Wire Line
	6800 4600 8100 4600
$Comp
L Connector:Conn_01x06_Male J7
U 1 1 5C039E01
P 9450 3200
F 0 "J7" H 9650 2850 50  0000 R CNN
F 1 "Conn_01x06_Male" H 9500 2850 50  0000 R CNN
F 2 "Connector_PinHeader_2.54mm:PinHeader_1x06_P2.54mm_Vertical" H 9450 3200 50  0001 C CNN
F 3 "~" H 9450 3200 50  0001 C CNN
	1    9450 3200
	-1   0    0    -1  
$EndComp
Wire Wire Line
	2950 2600 3250 2600
Wire Wire Line
	3600 2600 3250 2600
Connection ~ 3250 2600
Wire Wire Line
	3250 2300 3250 2600
Wire Wire Line
	8550 6850 8550 6800
Wire Wire Line
	9100 6800 9100 6850
$Comp
L power:+5V #PWR021
U 1 1 5C07BE26
P 9100 6800
F 0 "#PWR021" H 9100 6650 50  0001 C CNN
F 1 "+5V" H 9115 6973 50  0000 C CNN
F 2 "" H 9100 6800 50  0001 C CNN
F 3 "" H 9100 6800 50  0001 C CNN
	1    9100 6800
	1    0    0    -1  
$EndComp
$Comp
L power:+3V3 #PWR018
U 1 1 5C07BDC2
P 8550 6800
F 0 "#PWR018" H 8550 6650 50  0001 C CNN
F 1 "+3V3" H 8565 6973 50  0000 C CNN
F 2 "" H 8550 6800 50  0001 C CNN
F 3 "" H 8550 6800 50  0001 C CNN
	1    8550 6800
	1    0    0    -1  
$EndComp
Wire Wire Line
	7900 6800 7900 6850
$Comp
L power:GND #PWR017
U 1 1 5C04E89A
P 7900 6850
F 0 "#PWR017" H 7900 6600 50  0001 C CNN
F 1 "GND" H 7905 6677 50  0000 C CNN
F 2 "" H 7900 6850 50  0001 C CNN
F 3 "" H 7900 6850 50  0001 C CNN
	1    7900 6850
	1    0    0    -1  
$EndComp
$Comp
L power:PWR_FLAG #FLG03
U 1 1 5C04E828
P 9100 6850
F 0 "#FLG03" H 9100 6925 50  0001 C CNN
F 1 "PWR_FLAG" H 9100 7023 50  0000 C CNN
F 2 "" H 9100 6850 50  0001 C CNN
F 3 "~" H 9100 6850 50  0001 C CNN
	1    9100 6850
	1    0    0    1   
$EndComp
$Comp
L power:PWR_FLAG #FLG02
U 1 1 5C04E7D2
P 8550 6850
F 0 "#FLG02" H 8550 6925 50  0001 C CNN
F 1 "PWR_FLAG" H 8550 7023 50  0000 C CNN
F 2 "" H 8550 6850 50  0001 C CNN
F 3 "~" H 8550 6850 50  0001 C CNN
	1    8550 6850
	1    0    0    1   
$EndComp
$Comp
L power:PWR_FLAG #FLG01
U 1 1 5C04E77C
P 7900 6800
F 0 "#FLG01" H 7900 6875 50  0001 C CNN
F 1 "PWR_FLAG" H 7900 6950 50  0000 C CNN
F 2 "" H 7900 6800 50  0001 C CNN
F 3 "~" H 7900 6800 50  0001 C CNN
	1    7900 6800
	1    0    0    -1  
$EndComp
$Comp
L waterelfv6-rescue:DMN1019-dk_Transistors-FETs-MOSFETs-Single Q1
U 1 1 5C0CFB75
P 3250 2100
F 0 "Q1" H 3350 2250 60  0000 L CNN
F 1 "DMN1019" H 3350 2150 60  0000 L CNN
F 2 "Package_TO_SOT_SMD:SOT-23_Handsoldering" H 3450 2300 60  0001 L CNN
F 3 "https://www.diodes.com/assets/Datasheets/DMN1019USN.pdf" H 3450 2400 60  0001 L CNN
F 4 "DMN1019" H 3450 2600 60  0001 L CNN "MPN"
F 5 "Discrete Semiconductor Products" H 3450 2700 60  0001 L CNN "Category"
F 6 "Transistors - FETs, MOSFETs - Single" H 3450 2800 60  0001 L CNN "Family"
F 7 "https://www.diodes.com/assets/Datasheets/DMN1019USN.pdf" H 3450 2900 60  0001 L CNN "DK_Datasheet_Link"
F 8 "MOSFET N-CH 12V 9.4A SOT-23" H 3450 3100 60  0001 L CNN "Description"
F 9 "Diodes INC" H 3450 3200 60  0001 L CNN "Manufacturer"
F 10 "Active" H 3450 3300 60  0001 L CNN "Status"
	1    3250 2100
	1    0    0    -1  
$EndComp
Connection ~ 2950 2200
$Comp
L Jumper:Jumper_2_Bridged JP1
U 1 1 5BEAFAA7
P 8550 3600
F 0 "JP1" H 8550 3795 50  0000 C CNN
F 1 "Jumper_2_Bridged" H 8550 3704 50  0000 C CNN
F 2 "Connector_PinHeader_2.54mm:PinHeader_1x02_P2.54mm_Vertical" H 8550 3600 50  0001 C CNN
F 3 "~" H 8550 3600 50  0001 C CNN
	1    8550 3600
	1    0    0    -1  
$EndComp
Wire Wire Line
	9200 3000 9200 3600
Wire Wire Line
	8750 3600 9200 3600
Connection ~ 9200 3600
Wire Wire Line
	9200 3600 9200 4500
Text Label 6900 3400 0    50   ~ 0
TEMP
$Comp
L waterelfv6-rescue:FEATHER-IsoISE-feather J4
U 1 1 5BE745A1
P 6700 2850
F 0 "J4" H 6300 3700 50  0000 L CNN
F 1 "FEATHER" H 6450 3700 50  0000 L CNN
F 2 "boardlibrary:FeatherWing" H 5900 2850 50  0001 C CNN
F 3 "" H 5900 2850 50  0001 C CNN
	1    6700 2850
	1    0    0    -1  
$EndComp
Text Label 6900 3100 0    50   ~ 0
HUMID
Text Label 8200 2450 0    50   ~ 0
HUMID
Text Label 8200 1650 0    50   ~ 0
TEMP
Wire Wire Line
	6700 4700 7800 4700
Wire Wire Line
	6700 3500 6700 4700
Wire Wire Line
	7250 3500 6700 3500
Wire Wire Line
	7800 4250 7800 4700
Wire Wire Line
	7800 3950 7800 3600
Wire Wire Line
	8100 4250 8100 4600
Wire Wire Line
	7800 3600 8100 3600
Wire Wire Line
	8100 3950 8100 3600
Connection ~ 8100 3600
Wire Wire Line
	8100 3600 8350 3600
Connection ~ 7800 4700
Connection ~ 8100 4600
Wire Wire Line
	8100 4600 9100 4600
Wire Wire Line
	7800 4700 9050 4700
Text Notes 8200 3850 0    50   ~ 0
DISCONNECT TO\nDISABLE I2C PULLUPS\n
$Comp
L power:PWR_FLAG #FLG0101
U 1 1 5C4B5ED0
P 9650 6850
F 0 "#FLG0101" H 9650 6925 50  0001 C CNN
F 1 "PWR_FLAG" H 9650 7023 50  0000 C CNN
F 2 "" H 9650 6850 50  0001 C CNN
F 3 "~" H 9650 6850 50  0001 C CNN
	1    9650 6850
	1    0    0    1   
$EndComp
$Comp
L power:+3.3VP #PWR0102
U 1 1 5C4B606C
P 9650 6800
F 0 "#PWR0102" H 9800 6750 50  0001 C CNN
F 1 "+3.3VP" H 9650 6950 50  0000 C CNN
F 2 "" H 9650 6800 50  0001 C CNN
F 3 "" H 9650 6800 50  0001 C CNN
	1    9650 6800
	1    0    0    -1  
$EndComp
Wire Wire Line
	9650 6850 9650 6800
$Comp
L power:+3.3VP #PWR01
U 1 1 5C4C8BDB
P 3050 1700
F 0 "#PWR01" H 3200 1650 50  0001 C CNN
F 1 "+3.3VP" H 3050 1800 50  0000 C CNN
F 2 "" H 3050 1700 50  0001 C CNN
F 3 "" H 3050 1700 50  0001 C CNN
	1    3050 1700
	1    0    0    -1  
$EndComp
$Comp
L power:+3.3VP #PWR02
U 1 1 5C4C8C3B
P 3050 3900
F 0 "#PWR02" H 3200 3850 50  0001 C CNN
F 1 "+3.3VP" H 3050 4000 50  0000 C CNN
F 2 "" H 3050 3900 50  0001 C CNN
F 3 "" H 3050 3900 50  0001 C CNN
	1    3050 3900
	1    0    0    -1  
$EndComp
$Comp
L power:+3.3VP #PWR03
U 1 1 5C4C90C3
P 3050 6150
F 0 "#PWR03" H 3200 6100 50  0001 C CNN
F 1 "+3.3VP" H 3050 6250 50  0000 C CNN
F 2 "" H 3050 6150 50  0001 C CNN
F 3 "" H 3050 6150 50  0001 C CNN
	1    3050 6150
	1    0    0    -1  
$EndComp
$Comp
L Device:LED D6
U 1 1 5C4C96E9
P 4100 6000
F 0 "D6" V 4138 5883 50  0000 R CNN
F 1 "LED" V 4047 5883 50  0000 R CNN
F 2 "LED_SMD:LED_0805_2012Metric_Pad1.15x1.40mm_HandSolder" H 4100 6000 50  0001 C CNN
F 3 "~" H 4100 6000 50  0001 C CNN
	1    4100 6000
	0    -1   -1   0   
$EndComp
$Comp
L Device:LED D3
U 1 1 5C4C97D5
P 3700 6000
F 0 "D3" V 3738 5883 50  0000 R CNN
F 1 "LED" V 3647 5883 50  0000 R CNN
F 2 "LED_SMD:LED_0805_2012Metric_Pad1.15x1.40mm_HandSolder" H 3700 6000 50  0001 C CNN
F 3 "~" H 3700 6000 50  0001 C CNN
	1    3700 6000
	0    -1   -1   0   
$EndComp
Wire Wire Line
	3250 6350 3250 6150
Wire Wire Line
	3250 6150 3700 6150
Connection ~ 3250 6350
Wire Wire Line
	4100 6250 4100 6150
Connection ~ 4100 6250
$Comp
L Device:R R16
U 1 1 5C4D604B
P 4100 5650
F 0 "R16" H 4170 5696 50  0000 L CNN
F 1 "560R" H 4170 5605 50  0000 L CNN
F 2 "Resistor_SMD:R_0805_2012Metric_Pad1.15x1.40mm_HandSolder" V 4030 5650 50  0001 C CNN
F 3 "~" H 4100 5650 50  0001 C CNN
	1    4100 5650
	1    0    0    -1  
$EndComp
$Comp
L Device:R R13
U 1 1 5C4D60C7
P 3700 5650
F 0 "R13" H 3770 5696 50  0000 L CNN
F 1 "330R" H 3770 5605 50  0000 L CNN
F 2 "Resistor_SMD:R_0805_2012Metric_Pad1.15x1.40mm_HandSolder" V 3630 5650 50  0001 C CNN
F 3 "~" H 3700 5650 50  0001 C CNN
	1    3700 5650
	1    0    0    -1  
$EndComp
Wire Wire Line
	4100 5850 4100 5800
Wire Wire Line
	3700 5850 3700 5800
Wire Wire Line
	4100 5500 4100 5450
Wire Wire Line
	4100 5450 3700 5450
Wire Wire Line
	3700 5450 3700 5500
Wire Wire Line
	3700 5450 3550 5450
Wire Wire Line
	3550 5450 3550 5950
Connection ~ 3700 5450
Text Notes 4200 6200 0    50   ~ 0
RED
Text Notes 3800 6200 0    50   ~ 0
BLUE
$Comp
L Device:LED D5
U 1 1 5C5186E6
P 4100 3750
F 0 "D5" V 4138 3633 50  0000 R CNN
F 1 "LED" V 4047 3633 50  0000 R CNN
F 2 "LED_SMD:LED_0805_2012Metric_Pad1.15x1.40mm_HandSolder" H 4100 3750 50  0001 C CNN
F 3 "~" H 4100 3750 50  0001 C CNN
	1    4100 3750
	0    -1   -1   0   
$EndComp
$Comp
L Device:LED D2
U 1 1 5C5186EC
P 3700 3750
F 0 "D2" V 3738 3633 50  0000 R CNN
F 1 "LED" V 3647 3633 50  0000 R CNN
F 2 "LED_SMD:LED_0805_2012Metric_Pad1.15x1.40mm_HandSolder" H 3700 3750 50  0001 C CNN
F 3 "~" H 3700 3750 50  0001 C CNN
	1    3700 3750
	0    -1   -1   0   
$EndComp
Wire Wire Line
	3250 3900 3700 3900
Wire Wire Line
	4100 4000 4100 3900
$Comp
L Device:R R15
U 1 1 5C5186F4
P 4100 3400
F 0 "R15" H 4170 3446 50  0000 L CNN
F 1 "560R" H 4170 3355 50  0000 L CNN
F 2 "Resistor_SMD:R_0805_2012Metric_Pad1.15x1.40mm_HandSolder" V 4030 3400 50  0001 C CNN
F 3 "~" H 4100 3400 50  0001 C CNN
	1    4100 3400
	1    0    0    -1  
$EndComp
$Comp
L Device:R R12
U 1 1 5C5186FA
P 3700 3400
F 0 "R12" H 3770 3446 50  0000 L CNN
F 1 "330R" H 3770 3355 50  0000 L CNN
F 2 "Resistor_SMD:R_0805_2012Metric_Pad1.15x1.40mm_HandSolder" V 3630 3400 50  0001 C CNN
F 3 "~" H 3700 3400 50  0001 C CNN
	1    3700 3400
	1    0    0    -1  
$EndComp
Wire Wire Line
	4100 3600 4100 3550
Wire Wire Line
	3700 3600 3700 3550
Wire Wire Line
	4100 3250 4100 3200
Wire Wire Line
	4100 3200 3700 3200
Wire Wire Line
	3700 3200 3700 3250
Wire Wire Line
	3700 3200 3550 3200
Wire Wire Line
	3550 3200 3550 3700
Connection ~ 3700 3200
Text Notes 4200 3950 0    50   ~ 0
RED
Text Notes 3800 3950 0    50   ~ 0
BLUE
Connection ~ 4100 4000
Wire Wire Line
	3250 3900 3250 4100
Connection ~ 3250 4100
Wire Wire Line
	4100 4000 2750 4000
Wire Wire Line
	4100 1800 2750 1800
Wire Wire Line
	4100 1900 4100 1800
$Comp
L Device:LED D4
U 1 1 5C531038
P 4100 1550
F 0 "D4" V 4138 1433 50  0000 R CNN
F 1 "LED" V 4047 1433 50  0000 R CNN
F 2 "LED_SMD:LED_0805_2012Metric_Pad1.15x1.40mm_HandSolder" H 4100 1550 50  0001 C CNN
F 3 "~" H 4100 1550 50  0001 C CNN
	1    4100 1550
	0    -1   -1   0   
$EndComp
$Comp
L Device:LED D1
U 1 1 5C53103E
P 3700 1550
F 0 "D1" V 3738 1433 50  0000 R CNN
F 1 "LED" V 3647 1433 50  0000 R CNN
F 2 "LED_SMD:LED_0805_2012Metric_Pad1.15x1.40mm_HandSolder" H 3700 1550 50  0001 C CNN
F 3 "~" H 3700 1550 50  0001 C CNN
	1    3700 1550
	0    -1   -1   0   
$EndComp
Wire Wire Line
	3250 1700 3700 1700
Wire Wire Line
	4100 1800 4100 1700
$Comp
L Device:R R14
U 1 1 5C531046
P 4100 1200
F 0 "R14" H 4170 1246 50  0000 L CNN
F 1 "560R" H 4170 1155 50  0000 L CNN
F 2 "Resistor_SMD:R_0805_2012Metric_Pad1.15x1.40mm_HandSolder" V 4030 1200 50  0001 C CNN
F 3 "~" H 4100 1200 50  0001 C CNN
	1    4100 1200
	1    0    0    -1  
$EndComp
$Comp
L Device:R R11
U 1 1 5C53104C
P 3700 1200
F 0 "R11" H 3770 1246 50  0000 L CNN
F 1 "330R" H 3770 1155 50  0000 L CNN
F 2 "Resistor_SMD:R_0805_2012Metric_Pad1.15x1.40mm_HandSolder" V 3630 1200 50  0001 C CNN
F 3 "~" H 3700 1200 50  0001 C CNN
	1    3700 1200
	1    0    0    -1  
$EndComp
Wire Wire Line
	4100 1400 4100 1350
Wire Wire Line
	3700 1400 3700 1350
Wire Wire Line
	4100 1050 4100 1000
Wire Wire Line
	4100 1000 3700 1000
Wire Wire Line
	3700 1000 3700 1050
Wire Wire Line
	3700 1000 3550 1000
Wire Wire Line
	3550 1000 3550 1500
Connection ~ 3700 1000
Text Notes 4200 1750 0    50   ~ 0
RED
Text Notes 3800 1750 0    50   ~ 0
BLUE
Connection ~ 4100 1800
Wire Wire Line
	3250 1700 3250 1900
Connection ~ 3250 1900
Wire Wire Line
	3050 1700 3200 1700
Wire Wire Line
	3200 1700 3200 1500
Wire Wire Line
	3200 1500 3550 1500
Connection ~ 3050 1700
Wire Wire Line
	3050 3900 3200 3900
Wire Wire Line
	3200 3900 3200 3700
Wire Wire Line
	3200 3700 3550 3700
Connection ~ 3050 3900
Wire Wire Line
	3050 6150 3200 6150
Wire Wire Line
	3200 6150 3200 5950
Wire Wire Line
	3200 5950 3550 5950
Connection ~ 3050 6150
$Comp
L Regulator_Linear:LD1117S33TR_SOT223 U1
U 1 1 5C4CCB0A
P 5950 5550
F 0 "U1" H 5950 5792 50  0000 C CNN
F 1 "LD1117S33TR_SOT223" H 5950 5701 50  0000 C CNN
F 2 "Package_TO_SOT_SMD:SOT-223-3_TabPin2" H 5950 5750 50  0001 C CNN
F 3 "http://www.st.com/st-web-ui/static/active/en/resource/technical/document/datasheet/CD00000544.pdf" H 6050 5300 50  0001 C CNN
	1    5950 5550
	1    0    0    -1  
$EndComp
$Comp
L Device:C C1
U 1 1 5C4D55A2
P 5350 5750
F 0 "C1" H 5465 5796 50  0000 L CNN
F 1 "100nF" H 5465 5705 50  0000 L CNN
F 2 "Capacitor_SMD:C_0805_2012Metric_Pad1.15x1.40mm_HandSolder" H 5388 5600 50  0001 C CNN
F 3 "~" H 5350 5750 50  0001 C CNN
	1    5350 5750
	1    0    0    -1  
$EndComp
$Comp
L Device:C C2
U 1 1 5C4D5634
P 6450 5750
F 0 "C2" H 6565 5796 50  0000 L CNN
F 1 "10uF" H 6565 5705 50  0000 L CNN
F 2 "Capacitor_SMD:C_0805_2012Metric_Pad1.15x1.40mm_HandSolder" H 6488 5600 50  0001 C CNN
F 3 "~" H 6450 5750 50  0001 C CNN
	1    6450 5750
	1    0    0    -1  
$EndComp
$Comp
L power:GND #PWR016
U 1 1 5C4DE64D
P 5950 6050
F 0 "#PWR016" H 5950 5800 50  0001 C CNN
F 1 "GND" H 5955 5877 50  0000 C CNN
F 2 "" H 5950 6050 50  0001 C CNN
F 3 "" H 5950 6050 50  0001 C CNN
	1    5950 6050
	1    0    0    -1  
$EndComp
$Comp
L power:+3.3VP #PWR022
U 1 1 5C4DED38
P 6650 5550
F 0 "#PWR022" H 6800 5500 50  0001 C CNN
F 1 "+3.3VP" H 6650 5700 50  0000 C CNN
F 2 "" H 6650 5550 50  0001 C CNN
F 3 "" H 6650 5550 50  0001 C CNN
	1    6650 5550
	1    0    0    -1  
$EndComp
$Comp
L power:+5V #PWR015
U 1 1 5C4DED93
P 5100 5550
F 0 "#PWR015" H 5100 5400 50  0001 C CNN
F 1 "+5V" H 5100 5700 50  0000 C CNN
F 2 "" H 5100 5550 50  0001 C CNN
F 3 "" H 5100 5550 50  0001 C CNN
	1    5100 5550
	1    0    0    -1  
$EndComp
Wire Wire Line
	6650 5550 6450 5550
Wire Wire Line
	6450 5600 6450 5550
Connection ~ 6450 5550
Wire Wire Line
	6450 5550 6250 5550
Wire Wire Line
	6450 5900 5950 5900
Wire Wire Line
	5950 5850 5950 5900
Connection ~ 5950 5900
Wire Wire Line
	5950 5900 5950 6050
Wire Wire Line
	5350 5900 5950 5900
Wire Wire Line
	5350 5600 5350 5550
Wire Wire Line
	5350 5550 5100 5550
Wire Wire Line
	5350 5550 5650 5550
Connection ~ 5350 5550
$EndSCHEMATC
