%TF.GenerationSoftware,KiCad,Pcbnew,(5.0.2)-1*%
%TF.CreationDate,2019-01-20T19:52:30+00:00*%
%TF.ProjectId,waterelfv6,77617465-7265-46c6-9676-362e6b696361,rev?*%
%TF.SameCoordinates,Original*%
%TF.FileFunction,Soldermask,Bot*%
%TF.FilePolarity,Negative*%
%FSLAX46Y46*%
G04 Gerber Fmt 4.6, Leading zero omitted, Abs format (unit mm)*
G04 Created by KiCad (PCBNEW (5.0.2)-1) date 20/01/2019 19:52:30*
%MOMM*%
%LPD*%
G01*
G04 APERTURE LIST*
%ADD10C,0.200000*%
%ADD11C,0.010000*%
%ADD12C,0.150000*%
G04 APERTURE END LIST*
D10*
X106800000Y-43000000D02*
X161600000Y-43000000D01*
X106800000Y-115700000D02*
X106800000Y-43000000D01*
X161600000Y-115700000D02*
X106800000Y-115700000D01*
X161600000Y-43000000D02*
X161600000Y-115700000D01*
D11*
G36*
X145775960Y-72905941D02*
X145842395Y-73023545D01*
X145945045Y-73117023D01*
X146031124Y-73160812D01*
X146169614Y-73191422D01*
X146307591Y-73182321D01*
X146429084Y-73134973D01*
X146447850Y-73122588D01*
X146535408Y-73032149D01*
X146595553Y-72913271D01*
X146625418Y-72780333D01*
X146622134Y-72647713D01*
X146582832Y-72529790D01*
X146570244Y-72509006D01*
X146491394Y-72426737D01*
X146382770Y-72358914D01*
X146265295Y-72316747D01*
X146195799Y-72308400D01*
X146086575Y-72327674D01*
X145972110Y-72378190D01*
X145873158Y-72448982D01*
X145824295Y-72504642D01*
X145763876Y-72636861D01*
X145748776Y-72773837D01*
X145775960Y-72905941D01*
X145775960Y-72905941D01*
G37*
X145775960Y-72905941D02*
X145842395Y-73023545D01*
X145945045Y-73117023D01*
X146031124Y-73160812D01*
X146169614Y-73191422D01*
X146307591Y-73182321D01*
X146429084Y-73134973D01*
X146447850Y-73122588D01*
X146535408Y-73032149D01*
X146595553Y-72913271D01*
X146625418Y-72780333D01*
X146622134Y-72647713D01*
X146582832Y-72529790D01*
X146570244Y-72509006D01*
X146491394Y-72426737D01*
X146382770Y-72358914D01*
X146265295Y-72316747D01*
X146195799Y-72308400D01*
X146086575Y-72327674D01*
X145972110Y-72378190D01*
X145873158Y-72448982D01*
X145824295Y-72504642D01*
X145763876Y-72636861D01*
X145748776Y-72773837D01*
X145775960Y-72905941D01*
G36*
X148642045Y-73146600D02*
X148913528Y-73146821D01*
X149138618Y-73147583D01*
X149321721Y-73149026D01*
X149467240Y-73151294D01*
X149579583Y-73154531D01*
X149663155Y-73158878D01*
X149722359Y-73164480D01*
X149761603Y-73171478D01*
X149785292Y-73180016D01*
X149791395Y-73183892D01*
X149828943Y-73210178D01*
X149857085Y-73220891D01*
X149877174Y-73210710D01*
X149890563Y-73174312D01*
X149898605Y-73106376D01*
X149902653Y-73001578D01*
X149904060Y-72854598D01*
X149904200Y-72740200D01*
X149903515Y-72589918D01*
X149901608Y-72458727D01*
X149898702Y-72354427D01*
X149895017Y-72284819D01*
X149890776Y-72257705D01*
X149890488Y-72257600D01*
X149861454Y-72268155D01*
X149804509Y-72294726D01*
X149777200Y-72308400D01*
X149749760Y-72321266D01*
X149719394Y-72331759D01*
X149680920Y-72340120D01*
X149629155Y-72346591D01*
X149558918Y-72351411D01*
X149465027Y-72354822D01*
X149342301Y-72357065D01*
X149185559Y-72358381D01*
X148989617Y-72359010D01*
X148749296Y-72359195D01*
X148684750Y-72359200D01*
X148427269Y-72358947D01*
X148215749Y-72358071D01*
X148045351Y-72356396D01*
X147911238Y-72353748D01*
X147808571Y-72349950D01*
X147732513Y-72344827D01*
X147678226Y-72338203D01*
X147640872Y-72329903D01*
X147616938Y-72320447D01*
X147542000Y-72281695D01*
X147542000Y-73146600D01*
X148642045Y-73146600D01*
X148642045Y-73146600D01*
G37*
X148642045Y-73146600D02*
X148913528Y-73146821D01*
X149138618Y-73147583D01*
X149321721Y-73149026D01*
X149467240Y-73151294D01*
X149579583Y-73154531D01*
X149663155Y-73158878D01*
X149722359Y-73164480D01*
X149761603Y-73171478D01*
X149785292Y-73180016D01*
X149791395Y-73183892D01*
X149828943Y-73210178D01*
X149857085Y-73220891D01*
X149877174Y-73210710D01*
X149890563Y-73174312D01*
X149898605Y-73106376D01*
X149902653Y-73001578D01*
X149904060Y-72854598D01*
X149904200Y-72740200D01*
X149903515Y-72589918D01*
X149901608Y-72458727D01*
X149898702Y-72354427D01*
X149895017Y-72284819D01*
X149890776Y-72257705D01*
X149890488Y-72257600D01*
X149861454Y-72268155D01*
X149804509Y-72294726D01*
X149777200Y-72308400D01*
X149749760Y-72321266D01*
X149719394Y-72331759D01*
X149680920Y-72340120D01*
X149629155Y-72346591D01*
X149558918Y-72351411D01*
X149465027Y-72354822D01*
X149342301Y-72357065D01*
X149185559Y-72358381D01*
X148989617Y-72359010D01*
X148749296Y-72359195D01*
X148684750Y-72359200D01*
X148427269Y-72358947D01*
X148215749Y-72358071D01*
X148045351Y-72356396D01*
X147911238Y-72353748D01*
X147808571Y-72349950D01*
X147732513Y-72344827D01*
X147678226Y-72338203D01*
X147640872Y-72329903D01*
X147616938Y-72320447D01*
X147542000Y-72281695D01*
X147542000Y-73146600D01*
X148642045Y-73146600D01*
G36*
X146678400Y-71563747D02*
X146678400Y-72109059D01*
X146879787Y-71910279D01*
X147242691Y-71580571D01*
X147516815Y-71366151D01*
X147620400Y-71287703D01*
X147740529Y-71193144D01*
X147864202Y-71093050D01*
X147978419Y-70997998D01*
X148070181Y-70918566D01*
X148097760Y-70893468D01*
X148185212Y-70812036D01*
X148276356Y-70881994D01*
X148465604Y-71017436D01*
X148605050Y-71104978D01*
X148687286Y-71159848D01*
X148766612Y-71221124D01*
X148772607Y-71226273D01*
X148855581Y-71295222D01*
X148958137Y-71375747D01*
X149068288Y-71458942D01*
X149174047Y-71535902D01*
X149263425Y-71597719D01*
X149320547Y-71633376D01*
X149373596Y-71668457D01*
X149452062Y-71726986D01*
X149543252Y-71798820D01*
X149634472Y-71873815D01*
X149713032Y-71941828D01*
X149752020Y-71978200D01*
X149778081Y-72002089D01*
X149825406Y-72044363D01*
X149834570Y-72052477D01*
X149904200Y-72114055D01*
X149904200Y-70987600D01*
X149825923Y-70987600D01*
X149749395Y-70970837D01*
X149644149Y-70923607D01*
X149518239Y-70850493D01*
X149379716Y-70756081D01*
X149265533Y-70668542D01*
X149173313Y-70597268D01*
X149082269Y-70531947D01*
X149009535Y-70484777D01*
X148998833Y-70478671D01*
X148932434Y-70438629D01*
X148884284Y-70403342D01*
X148875500Y-70394699D01*
X148836816Y-70360138D01*
X148780250Y-70319915D01*
X148732093Y-70282226D01*
X148710487Y-70251715D01*
X148710400Y-70250414D01*
X148735091Y-70241538D01*
X148806381Y-70234418D01*
X148920092Y-70229264D01*
X149072044Y-70226283D01*
X149206961Y-70225600D01*
X149386263Y-70226284D01*
X149522270Y-70228695D01*
X149622475Y-70233375D01*
X149694369Y-70240863D01*
X149745443Y-70251698D01*
X149783188Y-70266421D01*
X149784811Y-70267244D01*
X149844491Y-70302717D01*
X149882618Y-70334223D01*
X149884761Y-70337094D01*
X149890323Y-70321597D01*
X149895262Y-70262247D01*
X149899312Y-70165986D01*
X149902207Y-70039759D01*
X149903682Y-69890511D01*
X149903811Y-69838794D01*
X149904200Y-69312289D01*
X149834350Y-69341968D01*
X149775758Y-69370141D01*
X149740370Y-69392224D01*
X149711142Y-69396057D01*
X149635781Y-69399657D01*
X149518951Y-69402959D01*
X149365317Y-69405896D01*
X149179546Y-69408399D01*
X148966302Y-69410404D01*
X148730251Y-69411842D01*
X148476059Y-69412647D01*
X148304290Y-69412799D01*
X148000311Y-69412741D01*
X147742912Y-69412470D01*
X147527874Y-69411846D01*
X147350978Y-69410726D01*
X147208004Y-69408969D01*
X147094733Y-69406433D01*
X147006945Y-69402976D01*
X146940421Y-69398457D01*
X146890941Y-69392733D01*
X146854286Y-69385662D01*
X146826237Y-69377104D01*
X146802574Y-69366916D01*
X146792699Y-69361999D01*
X146730869Y-69331244D01*
X146691660Y-69313190D01*
X146685729Y-69311199D01*
X146683507Y-69335335D01*
X146681556Y-69402688D01*
X146679984Y-69505672D01*
X146678901Y-69636706D01*
X146678415Y-69788205D01*
X146678400Y-69821917D01*
X146678664Y-69995060D01*
X146679831Y-70123629D01*
X146682464Y-70213846D01*
X146687123Y-70271937D01*
X146694372Y-70304124D01*
X146704772Y-70316632D01*
X146718885Y-70315686D01*
X146722850Y-70314164D01*
X146811673Y-70280805D01*
X146900181Y-70256739D01*
X146999141Y-70240580D01*
X147119321Y-70230942D01*
X147271488Y-70226440D01*
X147411088Y-70225600D01*
X147830904Y-70225599D01*
X147757900Y-70301799D01*
X147707557Y-70349413D01*
X147670278Y-70375994D01*
X147663483Y-70378000D01*
X147637550Y-70393137D01*
X147584128Y-70432628D01*
X147514145Y-70487588D01*
X147438529Y-70549132D01*
X147368209Y-70608377D01*
X147314114Y-70656439D01*
X147288000Y-70683239D01*
X147260734Y-70705561D01*
X147204630Y-70743936D01*
X147161000Y-70771802D01*
X147073298Y-70830005D01*
X146986698Y-70892951D01*
X146958362Y-70915299D01*
X146891736Y-70960013D01*
X146830643Y-70985408D01*
X146814390Y-70987600D01*
X146770677Y-70988122D01*
X146737502Y-70993791D01*
X146713412Y-71010762D01*
X146696955Y-71045189D01*
X146686677Y-71103226D01*
X146681127Y-71191028D01*
X146678851Y-71314750D01*
X146678396Y-71480545D01*
X146678400Y-71563747D01*
X146678400Y-71563747D01*
G37*
X146678400Y-71563747D02*
X146678400Y-72109059D01*
X146879787Y-71910279D01*
X147242691Y-71580571D01*
X147516815Y-71366151D01*
X147620400Y-71287703D01*
X147740529Y-71193144D01*
X147864202Y-71093050D01*
X147978419Y-70997998D01*
X148070181Y-70918566D01*
X148097760Y-70893468D01*
X148185212Y-70812036D01*
X148276356Y-70881994D01*
X148465604Y-71017436D01*
X148605050Y-71104978D01*
X148687286Y-71159848D01*
X148766612Y-71221124D01*
X148772607Y-71226273D01*
X148855581Y-71295222D01*
X148958137Y-71375747D01*
X149068288Y-71458942D01*
X149174047Y-71535902D01*
X149263425Y-71597719D01*
X149320547Y-71633376D01*
X149373596Y-71668457D01*
X149452062Y-71726986D01*
X149543252Y-71798820D01*
X149634472Y-71873815D01*
X149713032Y-71941828D01*
X149752020Y-71978200D01*
X149778081Y-72002089D01*
X149825406Y-72044363D01*
X149834570Y-72052477D01*
X149904200Y-72114055D01*
X149904200Y-70987600D01*
X149825923Y-70987600D01*
X149749395Y-70970837D01*
X149644149Y-70923607D01*
X149518239Y-70850493D01*
X149379716Y-70756081D01*
X149265533Y-70668542D01*
X149173313Y-70597268D01*
X149082269Y-70531947D01*
X149009535Y-70484777D01*
X148998833Y-70478671D01*
X148932434Y-70438629D01*
X148884284Y-70403342D01*
X148875500Y-70394699D01*
X148836816Y-70360138D01*
X148780250Y-70319915D01*
X148732093Y-70282226D01*
X148710487Y-70251715D01*
X148710400Y-70250414D01*
X148735091Y-70241538D01*
X148806381Y-70234418D01*
X148920092Y-70229264D01*
X149072044Y-70226283D01*
X149206961Y-70225600D01*
X149386263Y-70226284D01*
X149522270Y-70228695D01*
X149622475Y-70233375D01*
X149694369Y-70240863D01*
X149745443Y-70251698D01*
X149783188Y-70266421D01*
X149784811Y-70267244D01*
X149844491Y-70302717D01*
X149882618Y-70334223D01*
X149884761Y-70337094D01*
X149890323Y-70321597D01*
X149895262Y-70262247D01*
X149899312Y-70165986D01*
X149902207Y-70039759D01*
X149903682Y-69890511D01*
X149903811Y-69838794D01*
X149904200Y-69312289D01*
X149834350Y-69341968D01*
X149775758Y-69370141D01*
X149740370Y-69392224D01*
X149711142Y-69396057D01*
X149635781Y-69399657D01*
X149518951Y-69402959D01*
X149365317Y-69405896D01*
X149179546Y-69408399D01*
X148966302Y-69410404D01*
X148730251Y-69411842D01*
X148476059Y-69412647D01*
X148304290Y-69412799D01*
X148000311Y-69412741D01*
X147742912Y-69412470D01*
X147527874Y-69411846D01*
X147350978Y-69410726D01*
X147208004Y-69408969D01*
X147094733Y-69406433D01*
X147006945Y-69402976D01*
X146940421Y-69398457D01*
X146890941Y-69392733D01*
X146854286Y-69385662D01*
X146826237Y-69377104D01*
X146802574Y-69366916D01*
X146792699Y-69361999D01*
X146730869Y-69331244D01*
X146691660Y-69313190D01*
X146685729Y-69311199D01*
X146683507Y-69335335D01*
X146681556Y-69402688D01*
X146679984Y-69505672D01*
X146678901Y-69636706D01*
X146678415Y-69788205D01*
X146678400Y-69821917D01*
X146678664Y-69995060D01*
X146679831Y-70123629D01*
X146682464Y-70213846D01*
X146687123Y-70271937D01*
X146694372Y-70304124D01*
X146704772Y-70316632D01*
X146718885Y-70315686D01*
X146722850Y-70314164D01*
X146811673Y-70280805D01*
X146900181Y-70256739D01*
X146999141Y-70240580D01*
X147119321Y-70230942D01*
X147271488Y-70226440D01*
X147411088Y-70225600D01*
X147830904Y-70225599D01*
X147757900Y-70301799D01*
X147707557Y-70349413D01*
X147670278Y-70375994D01*
X147663483Y-70378000D01*
X147637550Y-70393137D01*
X147584128Y-70432628D01*
X147514145Y-70487588D01*
X147438529Y-70549132D01*
X147368209Y-70608377D01*
X147314114Y-70656439D01*
X147288000Y-70683239D01*
X147260734Y-70705561D01*
X147204630Y-70743936D01*
X147161000Y-70771802D01*
X147073298Y-70830005D01*
X146986698Y-70892951D01*
X146958362Y-70915299D01*
X146891736Y-70960013D01*
X146830643Y-70985408D01*
X146814390Y-70987600D01*
X146770677Y-70988122D01*
X146737502Y-70993791D01*
X146713412Y-71010762D01*
X146696955Y-71045189D01*
X146686677Y-71103226D01*
X146681127Y-71191028D01*
X146678851Y-71314750D01*
X146678396Y-71480545D01*
X146678400Y-71563747D01*
D12*
G36*
X111942006Y-109083582D02*
X112342565Y-109249499D01*
X112703059Y-109490373D01*
X113009627Y-109796941D01*
X113250501Y-110157435D01*
X113416418Y-110557994D01*
X113501000Y-110983219D01*
X113501000Y-111416781D01*
X113416418Y-111842006D01*
X113250501Y-112242565D01*
X113009627Y-112603059D01*
X112703059Y-112909627D01*
X112342565Y-113150501D01*
X111942006Y-113316418D01*
X111516781Y-113401000D01*
X111083219Y-113401000D01*
X110657994Y-113316418D01*
X110257435Y-113150501D01*
X109896941Y-112909627D01*
X109590373Y-112603059D01*
X109349499Y-112242565D01*
X109183582Y-111842006D01*
X109099000Y-111416781D01*
X109099000Y-110983219D01*
X109183582Y-110557994D01*
X109349499Y-110157435D01*
X109590373Y-109796941D01*
X109896941Y-109490373D01*
X110257435Y-109249499D01*
X110657994Y-109083582D01*
X111083219Y-108999000D01*
X111516781Y-108999000D01*
X111942006Y-109083582D01*
X111942006Y-109083582D01*
G37*
G36*
X132990442Y-111405518D02*
X133056627Y-111412037D01*
X133169853Y-111446384D01*
X133226467Y-111463557D01*
X133365087Y-111537652D01*
X133382991Y-111547222D01*
X133418729Y-111576552D01*
X133520186Y-111659814D01*
X133603448Y-111761271D01*
X133632778Y-111797009D01*
X133632779Y-111797011D01*
X133716443Y-111953533D01*
X133716443Y-111953534D01*
X133767963Y-112123373D01*
X133785359Y-112300000D01*
X133767963Y-112476627D01*
X133746777Y-112546467D01*
X133716443Y-112646467D01*
X133686231Y-112702989D01*
X133632778Y-112802991D01*
X133603448Y-112838729D01*
X133520186Y-112940186D01*
X133418729Y-113023448D01*
X133382991Y-113052778D01*
X133382989Y-113052779D01*
X133226467Y-113136443D01*
X133180123Y-113150501D01*
X133056627Y-113187963D01*
X132990442Y-113194482D01*
X132924260Y-113201000D01*
X132835740Y-113201000D01*
X132769558Y-113194482D01*
X132703373Y-113187963D01*
X132579877Y-113150501D01*
X132533533Y-113136443D01*
X132377011Y-113052779D01*
X132377009Y-113052778D01*
X132341271Y-113023448D01*
X132239814Y-112940186D01*
X132156552Y-112838729D01*
X132127222Y-112802991D01*
X132073769Y-112702989D01*
X132043557Y-112646467D01*
X132013223Y-112546467D01*
X131992037Y-112476627D01*
X131974641Y-112300000D01*
X131992037Y-112123373D01*
X132043557Y-111953534D01*
X132043557Y-111953533D01*
X132127221Y-111797011D01*
X132127222Y-111797009D01*
X132156552Y-111761271D01*
X132239814Y-111659814D01*
X132341271Y-111576552D01*
X132377009Y-111547222D01*
X132394913Y-111537652D01*
X132533533Y-111463557D01*
X132590147Y-111446384D01*
X132703373Y-111412037D01*
X132769558Y-111405518D01*
X132835740Y-111399000D01*
X132924260Y-111399000D01*
X132990442Y-111405518D01*
X132990442Y-111405518D01*
G37*
G36*
X127910442Y-111405518D02*
X127976627Y-111412037D01*
X128089853Y-111446384D01*
X128146467Y-111463557D01*
X128285087Y-111537652D01*
X128302991Y-111547222D01*
X128338729Y-111576552D01*
X128440186Y-111659814D01*
X128523448Y-111761271D01*
X128552778Y-111797009D01*
X128552779Y-111797011D01*
X128636443Y-111953533D01*
X128636443Y-111953534D01*
X128687963Y-112123373D01*
X128705359Y-112300000D01*
X128687963Y-112476627D01*
X128666777Y-112546467D01*
X128636443Y-112646467D01*
X128606231Y-112702989D01*
X128552778Y-112802991D01*
X128523448Y-112838729D01*
X128440186Y-112940186D01*
X128338729Y-113023448D01*
X128302991Y-113052778D01*
X128302989Y-113052779D01*
X128146467Y-113136443D01*
X128100123Y-113150501D01*
X127976627Y-113187963D01*
X127910442Y-113194482D01*
X127844260Y-113201000D01*
X127755740Y-113201000D01*
X127689558Y-113194482D01*
X127623373Y-113187963D01*
X127499877Y-113150501D01*
X127453533Y-113136443D01*
X127297011Y-113052779D01*
X127297009Y-113052778D01*
X127261271Y-113023448D01*
X127159814Y-112940186D01*
X127076552Y-112838729D01*
X127047222Y-112802991D01*
X126993769Y-112702989D01*
X126963557Y-112646467D01*
X126933223Y-112546467D01*
X126912037Y-112476627D01*
X126894641Y-112300000D01*
X126912037Y-112123373D01*
X126963557Y-111953534D01*
X126963557Y-111953533D01*
X127047221Y-111797011D01*
X127047222Y-111797009D01*
X127076552Y-111761271D01*
X127159814Y-111659814D01*
X127261271Y-111576552D01*
X127297009Y-111547222D01*
X127314913Y-111537652D01*
X127453533Y-111463557D01*
X127510147Y-111446384D01*
X127623373Y-111412037D01*
X127689558Y-111405518D01*
X127755740Y-111399000D01*
X127844260Y-111399000D01*
X127910442Y-111405518D01*
X127910442Y-111405518D01*
G37*
G36*
X130450442Y-111405518D02*
X130516627Y-111412037D01*
X130629853Y-111446384D01*
X130686467Y-111463557D01*
X130825087Y-111537652D01*
X130842991Y-111547222D01*
X130878729Y-111576552D01*
X130980186Y-111659814D01*
X131063448Y-111761271D01*
X131092778Y-111797009D01*
X131092779Y-111797011D01*
X131176443Y-111953533D01*
X131176443Y-111953534D01*
X131227963Y-112123373D01*
X131245359Y-112300000D01*
X131227963Y-112476627D01*
X131206777Y-112546467D01*
X131176443Y-112646467D01*
X131146231Y-112702989D01*
X131092778Y-112802991D01*
X131063448Y-112838729D01*
X130980186Y-112940186D01*
X130878729Y-113023448D01*
X130842991Y-113052778D01*
X130842989Y-113052779D01*
X130686467Y-113136443D01*
X130640123Y-113150501D01*
X130516627Y-113187963D01*
X130450442Y-113194482D01*
X130384260Y-113201000D01*
X130295740Y-113201000D01*
X130229558Y-113194482D01*
X130163373Y-113187963D01*
X130039877Y-113150501D01*
X129993533Y-113136443D01*
X129837011Y-113052779D01*
X129837009Y-113052778D01*
X129801271Y-113023448D01*
X129699814Y-112940186D01*
X129616552Y-112838729D01*
X129587222Y-112802991D01*
X129533769Y-112702989D01*
X129503557Y-112646467D01*
X129473223Y-112546467D01*
X129452037Y-112476627D01*
X129434641Y-112300000D01*
X129452037Y-112123373D01*
X129503557Y-111953534D01*
X129503557Y-111953533D01*
X129587221Y-111797011D01*
X129587222Y-111797009D01*
X129616552Y-111761271D01*
X129699814Y-111659814D01*
X129801271Y-111576552D01*
X129837009Y-111547222D01*
X129854913Y-111537652D01*
X129993533Y-111463557D01*
X130050147Y-111446384D01*
X130163373Y-111412037D01*
X130229558Y-111405518D01*
X130295740Y-111399000D01*
X130384260Y-111399000D01*
X130450442Y-111405518D01*
X130450442Y-111405518D01*
G37*
G36*
X138070442Y-111405518D02*
X138136627Y-111412037D01*
X138249853Y-111446384D01*
X138306467Y-111463557D01*
X138445087Y-111537652D01*
X138462991Y-111547222D01*
X138498729Y-111576552D01*
X138600186Y-111659814D01*
X138683448Y-111761271D01*
X138712778Y-111797009D01*
X138712779Y-111797011D01*
X138796443Y-111953533D01*
X138796443Y-111953534D01*
X138847963Y-112123373D01*
X138865359Y-112300000D01*
X138847963Y-112476627D01*
X138826777Y-112546467D01*
X138796443Y-112646467D01*
X138766231Y-112702989D01*
X138712778Y-112802991D01*
X138683448Y-112838729D01*
X138600186Y-112940186D01*
X138498729Y-113023448D01*
X138462991Y-113052778D01*
X138462989Y-113052779D01*
X138306467Y-113136443D01*
X138260123Y-113150501D01*
X138136627Y-113187963D01*
X138070442Y-113194482D01*
X138004260Y-113201000D01*
X137915740Y-113201000D01*
X137849558Y-113194482D01*
X137783373Y-113187963D01*
X137659877Y-113150501D01*
X137613533Y-113136443D01*
X137457011Y-113052779D01*
X137457009Y-113052778D01*
X137421271Y-113023448D01*
X137319814Y-112940186D01*
X137236552Y-112838729D01*
X137207222Y-112802991D01*
X137153769Y-112702989D01*
X137123557Y-112646467D01*
X137093223Y-112546467D01*
X137072037Y-112476627D01*
X137054641Y-112300000D01*
X137072037Y-112123373D01*
X137123557Y-111953534D01*
X137123557Y-111953533D01*
X137207221Y-111797011D01*
X137207222Y-111797009D01*
X137236552Y-111761271D01*
X137319814Y-111659814D01*
X137421271Y-111576552D01*
X137457009Y-111547222D01*
X137474913Y-111537652D01*
X137613533Y-111463557D01*
X137670147Y-111446384D01*
X137783373Y-111412037D01*
X137849558Y-111405518D01*
X137915740Y-111399000D01*
X138004260Y-111399000D01*
X138070442Y-111405518D01*
X138070442Y-111405518D01*
G37*
G36*
X135530442Y-111405518D02*
X135596627Y-111412037D01*
X135709853Y-111446384D01*
X135766467Y-111463557D01*
X135905087Y-111537652D01*
X135922991Y-111547222D01*
X135958729Y-111576552D01*
X136060186Y-111659814D01*
X136143448Y-111761271D01*
X136172778Y-111797009D01*
X136172779Y-111797011D01*
X136256443Y-111953533D01*
X136256443Y-111953534D01*
X136307963Y-112123373D01*
X136325359Y-112300000D01*
X136307963Y-112476627D01*
X136286777Y-112546467D01*
X136256443Y-112646467D01*
X136226231Y-112702989D01*
X136172778Y-112802991D01*
X136143448Y-112838729D01*
X136060186Y-112940186D01*
X135958729Y-113023448D01*
X135922991Y-113052778D01*
X135922989Y-113052779D01*
X135766467Y-113136443D01*
X135720123Y-113150501D01*
X135596627Y-113187963D01*
X135530442Y-113194482D01*
X135464260Y-113201000D01*
X135375740Y-113201000D01*
X135309558Y-113194482D01*
X135243373Y-113187963D01*
X135119877Y-113150501D01*
X135073533Y-113136443D01*
X134917011Y-113052779D01*
X134917009Y-113052778D01*
X134881271Y-113023448D01*
X134779814Y-112940186D01*
X134696552Y-112838729D01*
X134667222Y-112802991D01*
X134613769Y-112702989D01*
X134583557Y-112646467D01*
X134553223Y-112546467D01*
X134532037Y-112476627D01*
X134514641Y-112300000D01*
X134532037Y-112123373D01*
X134583557Y-111953534D01*
X134583557Y-111953533D01*
X134667221Y-111797011D01*
X134667222Y-111797009D01*
X134696552Y-111761271D01*
X134779814Y-111659814D01*
X134881271Y-111576552D01*
X134917009Y-111547222D01*
X134934913Y-111537652D01*
X135073533Y-111463557D01*
X135130147Y-111446384D01*
X135243373Y-111412037D01*
X135309558Y-111405518D01*
X135375740Y-111399000D01*
X135464260Y-111399000D01*
X135530442Y-111405518D01*
X135530442Y-111405518D01*
G37*
G36*
X141401000Y-113201000D02*
X139599000Y-113201000D01*
X139599000Y-111399000D01*
X141401000Y-111399000D01*
X141401000Y-113201000D01*
X141401000Y-113201000D01*
G37*
G36*
X156901000Y-113101000D02*
X155099000Y-113101000D01*
X155099000Y-111299000D01*
X156901000Y-111299000D01*
X156901000Y-113101000D01*
X156901000Y-113101000D01*
G37*
G36*
X148490443Y-111305519D02*
X148556627Y-111312037D01*
X148669853Y-111346384D01*
X148726467Y-111363557D01*
X148865087Y-111437652D01*
X148882991Y-111447222D01*
X148902895Y-111463557D01*
X149020186Y-111559814D01*
X149102253Y-111659814D01*
X149132778Y-111697009D01*
X149132779Y-111697011D01*
X149216443Y-111853533D01*
X149216443Y-111853534D01*
X149267963Y-112023373D01*
X149285359Y-112200000D01*
X149267963Y-112376627D01*
X149237629Y-112476625D01*
X149216443Y-112546467D01*
X149162991Y-112646467D01*
X149132778Y-112702991D01*
X149103448Y-112738729D01*
X149020186Y-112840186D01*
X148935568Y-112909629D01*
X148882991Y-112952778D01*
X148882989Y-112952779D01*
X148726467Y-113036443D01*
X148672617Y-113052778D01*
X148556627Y-113087963D01*
X148490442Y-113094482D01*
X148424260Y-113101000D01*
X148335740Y-113101000D01*
X148269558Y-113094482D01*
X148203373Y-113087963D01*
X148087383Y-113052778D01*
X148033533Y-113036443D01*
X147877011Y-112952779D01*
X147877009Y-112952778D01*
X147824432Y-112909629D01*
X147739814Y-112840186D01*
X147656552Y-112738729D01*
X147627222Y-112702991D01*
X147597009Y-112646467D01*
X147543557Y-112546467D01*
X147522371Y-112476625D01*
X147492037Y-112376627D01*
X147474641Y-112200000D01*
X147492037Y-112023373D01*
X147543557Y-111853534D01*
X147543557Y-111853533D01*
X147627221Y-111697011D01*
X147627222Y-111697009D01*
X147657747Y-111659814D01*
X147739814Y-111559814D01*
X147857105Y-111463557D01*
X147877009Y-111447222D01*
X147894913Y-111437652D01*
X148033533Y-111363557D01*
X148090147Y-111346384D01*
X148203373Y-111312037D01*
X148269557Y-111305519D01*
X148335740Y-111299000D01*
X148424260Y-111299000D01*
X148490443Y-111305519D01*
X148490443Y-111305519D01*
G37*
G36*
X151030443Y-111305519D02*
X151096627Y-111312037D01*
X151209853Y-111346384D01*
X151266467Y-111363557D01*
X151405087Y-111437652D01*
X151422991Y-111447222D01*
X151442895Y-111463557D01*
X151560186Y-111559814D01*
X151642253Y-111659814D01*
X151672778Y-111697009D01*
X151672779Y-111697011D01*
X151756443Y-111853533D01*
X151756443Y-111853534D01*
X151807963Y-112023373D01*
X151825359Y-112200000D01*
X151807963Y-112376627D01*
X151777629Y-112476625D01*
X151756443Y-112546467D01*
X151702991Y-112646467D01*
X151672778Y-112702991D01*
X151643448Y-112738729D01*
X151560186Y-112840186D01*
X151475568Y-112909629D01*
X151422991Y-112952778D01*
X151422989Y-112952779D01*
X151266467Y-113036443D01*
X151212617Y-113052778D01*
X151096627Y-113087963D01*
X151030442Y-113094482D01*
X150964260Y-113101000D01*
X150875740Y-113101000D01*
X150809558Y-113094482D01*
X150743373Y-113087963D01*
X150627383Y-113052778D01*
X150573533Y-113036443D01*
X150417011Y-112952779D01*
X150417009Y-112952778D01*
X150364432Y-112909629D01*
X150279814Y-112840186D01*
X150196552Y-112738729D01*
X150167222Y-112702991D01*
X150137009Y-112646467D01*
X150083557Y-112546467D01*
X150062371Y-112476625D01*
X150032037Y-112376627D01*
X150014641Y-112200000D01*
X150032037Y-112023373D01*
X150083557Y-111853534D01*
X150083557Y-111853533D01*
X150167221Y-111697011D01*
X150167222Y-111697009D01*
X150197747Y-111659814D01*
X150279814Y-111559814D01*
X150397105Y-111463557D01*
X150417009Y-111447222D01*
X150434913Y-111437652D01*
X150573533Y-111363557D01*
X150630147Y-111346384D01*
X150743373Y-111312037D01*
X150809557Y-111305519D01*
X150875740Y-111299000D01*
X150964260Y-111299000D01*
X151030443Y-111305519D01*
X151030443Y-111305519D01*
G37*
G36*
X153570443Y-111305519D02*
X153636627Y-111312037D01*
X153749853Y-111346384D01*
X153806467Y-111363557D01*
X153945087Y-111437652D01*
X153962991Y-111447222D01*
X153982895Y-111463557D01*
X154100186Y-111559814D01*
X154182253Y-111659814D01*
X154212778Y-111697009D01*
X154212779Y-111697011D01*
X154296443Y-111853533D01*
X154296443Y-111853534D01*
X154347963Y-112023373D01*
X154365359Y-112200000D01*
X154347963Y-112376627D01*
X154317629Y-112476625D01*
X154296443Y-112546467D01*
X154242991Y-112646467D01*
X154212778Y-112702991D01*
X154183448Y-112738729D01*
X154100186Y-112840186D01*
X154015568Y-112909629D01*
X153962991Y-112952778D01*
X153962989Y-112952779D01*
X153806467Y-113036443D01*
X153752617Y-113052778D01*
X153636627Y-113087963D01*
X153570442Y-113094482D01*
X153504260Y-113101000D01*
X153415740Y-113101000D01*
X153349558Y-113094482D01*
X153283373Y-113087963D01*
X153167383Y-113052778D01*
X153113533Y-113036443D01*
X152957011Y-112952779D01*
X152957009Y-112952778D01*
X152904432Y-112909629D01*
X152819814Y-112840186D01*
X152736552Y-112738729D01*
X152707222Y-112702991D01*
X152677009Y-112646467D01*
X152623557Y-112546467D01*
X152602371Y-112476625D01*
X152572037Y-112376627D01*
X152554641Y-112200000D01*
X152572037Y-112023373D01*
X152623557Y-111853534D01*
X152623557Y-111853533D01*
X152707221Y-111697011D01*
X152707222Y-111697009D01*
X152737747Y-111659814D01*
X152819814Y-111559814D01*
X152937105Y-111463557D01*
X152957009Y-111447222D01*
X152974913Y-111437652D01*
X153113533Y-111363557D01*
X153170147Y-111346384D01*
X153283373Y-111312037D01*
X153349557Y-111305519D01*
X153415740Y-111299000D01*
X153504260Y-111299000D01*
X153570443Y-111305519D01*
X153570443Y-111305519D01*
G37*
G36*
X158850442Y-106530518D02*
X158916627Y-106537037D01*
X159029853Y-106571384D01*
X159086467Y-106588557D01*
X159225087Y-106662652D01*
X159242991Y-106672222D01*
X159278729Y-106701552D01*
X159380186Y-106784814D01*
X159463448Y-106886271D01*
X159492778Y-106922009D01*
X159492779Y-106922011D01*
X159576443Y-107078533D01*
X159576443Y-107078534D01*
X159627963Y-107248373D01*
X159645359Y-107425000D01*
X159627963Y-107601627D01*
X159593616Y-107714853D01*
X159576443Y-107771467D01*
X159502348Y-107910087D01*
X159492778Y-107927991D01*
X159463448Y-107963729D01*
X159380186Y-108065186D01*
X159278729Y-108148448D01*
X159242991Y-108177778D01*
X159242989Y-108177779D01*
X159086467Y-108261443D01*
X159029853Y-108278616D01*
X158916627Y-108312963D01*
X158850442Y-108319482D01*
X158784260Y-108326000D01*
X158695740Y-108326000D01*
X158629558Y-108319482D01*
X158563373Y-108312963D01*
X158450147Y-108278616D01*
X158393533Y-108261443D01*
X158237011Y-108177779D01*
X158237009Y-108177778D01*
X158201271Y-108148448D01*
X158099814Y-108065186D01*
X158016552Y-107963729D01*
X157987222Y-107927991D01*
X157977652Y-107910087D01*
X157903557Y-107771467D01*
X157886384Y-107714853D01*
X157852037Y-107601627D01*
X157834641Y-107425000D01*
X157852037Y-107248373D01*
X157903557Y-107078534D01*
X157903557Y-107078533D01*
X157987221Y-106922011D01*
X157987222Y-106922009D01*
X158016552Y-106886271D01*
X158099814Y-106784814D01*
X158201271Y-106701552D01*
X158237009Y-106672222D01*
X158254913Y-106662652D01*
X158393533Y-106588557D01*
X158450147Y-106571384D01*
X158563373Y-106537037D01*
X158629558Y-106530518D01*
X158695740Y-106524000D01*
X158784260Y-106524000D01*
X158850442Y-106530518D01*
X158850442Y-106530518D01*
G37*
G36*
X157101000Y-108326000D02*
X155299000Y-108326000D01*
X155299000Y-106524000D01*
X157101000Y-106524000D01*
X157101000Y-108326000D01*
X157101000Y-108326000D01*
G37*
G36*
X113848871Y-103678408D02*
X114153883Y-103804748D01*
X114426538Y-103986930D01*
X114428390Y-103988168D01*
X114661832Y-104221610D01*
X114661834Y-104221613D01*
X114845252Y-104496117D01*
X114971592Y-104801129D01*
X115036000Y-105124928D01*
X115036000Y-105455072D01*
X114971592Y-105778871D01*
X114845252Y-106083883D01*
X114663070Y-106356538D01*
X114661832Y-106358390D01*
X114428390Y-106591832D01*
X114428387Y-106591834D01*
X114153883Y-106775252D01*
X113848871Y-106901592D01*
X113525072Y-106966000D01*
X113194928Y-106966000D01*
X112871129Y-106901592D01*
X112566117Y-106775252D01*
X112291613Y-106591834D01*
X112291610Y-106591832D01*
X112058168Y-106358390D01*
X112056930Y-106356538D01*
X111874748Y-106083883D01*
X111748408Y-105778871D01*
X111684000Y-105455072D01*
X111684000Y-105124928D01*
X111748408Y-104801129D01*
X111874748Y-104496117D01*
X112058166Y-104221613D01*
X112058168Y-104221610D01*
X112291610Y-103988168D01*
X112293462Y-103986930D01*
X112566117Y-103804748D01*
X112871129Y-103678408D01*
X113194928Y-103614000D01*
X113525072Y-103614000D01*
X113848871Y-103678408D01*
X113848871Y-103678408D01*
G37*
G36*
X117913643Y-100709781D02*
X118059415Y-100770162D01*
X118190611Y-100857824D01*
X118302176Y-100969389D01*
X118389838Y-101100585D01*
X118450219Y-101246357D01*
X118481000Y-101401107D01*
X118481000Y-101558893D01*
X118450219Y-101713643D01*
X118389838Y-101859415D01*
X118302176Y-101990611D01*
X118190611Y-102102176D01*
X118059415Y-102189838D01*
X117913643Y-102250219D01*
X117758893Y-102281000D01*
X117601107Y-102281000D01*
X117446357Y-102250219D01*
X117300585Y-102189838D01*
X117169389Y-102102176D01*
X117057824Y-101990611D01*
X116970163Y-101859417D01*
X116941485Y-101790182D01*
X116929934Y-101768572D01*
X116914388Y-101749630D01*
X116895446Y-101734084D01*
X116873835Y-101722533D01*
X116850386Y-101715420D01*
X116826000Y-101713018D01*
X116801614Y-101715420D01*
X116778164Y-101722533D01*
X116756554Y-101734084D01*
X116737612Y-101749630D01*
X116722066Y-101768572D01*
X116710515Y-101790183D01*
X116703402Y-101813632D01*
X116701000Y-101838018D01*
X116701000Y-103301000D01*
X115099000Y-103301000D01*
X115099000Y-101699000D01*
X116754556Y-101699000D01*
X116778942Y-101696598D01*
X116802391Y-101689485D01*
X116824002Y-101677934D01*
X116842944Y-101662388D01*
X116858490Y-101643446D01*
X116870041Y-101621835D01*
X116877154Y-101598386D01*
X116879556Y-101574000D01*
X116879000Y-101568352D01*
X116879000Y-101401107D01*
X116909781Y-101246357D01*
X116970162Y-101100585D01*
X117057824Y-100969389D01*
X117169389Y-100857824D01*
X117300585Y-100770162D01*
X117446357Y-100709781D01*
X117601107Y-100679000D01*
X117758893Y-100679000D01*
X117913643Y-100709781D01*
X117913643Y-100709781D01*
G37*
G36*
X155492006Y-98083582D02*
X155892565Y-98249499D01*
X156253059Y-98490373D01*
X156559627Y-98796941D01*
X156800501Y-99157435D01*
X156966418Y-99557994D01*
X157051000Y-99983219D01*
X157051000Y-100416781D01*
X156966418Y-100842006D01*
X156800501Y-101242565D01*
X156559627Y-101603059D01*
X156253059Y-101909627D01*
X155892565Y-102150501D01*
X155492006Y-102316418D01*
X155066781Y-102401000D01*
X154633219Y-102401000D01*
X154207994Y-102316418D01*
X153807435Y-102150501D01*
X153446941Y-101909627D01*
X153140373Y-101603059D01*
X152899499Y-101242565D01*
X152733582Y-100842006D01*
X152649000Y-100416781D01*
X152649000Y-99983219D01*
X152733582Y-99557994D01*
X152899499Y-99157435D01*
X153140373Y-98796941D01*
X153446941Y-98490373D01*
X153807435Y-98249499D01*
X154207994Y-98083582D01*
X154633219Y-97999000D01*
X155066781Y-97999000D01*
X155492006Y-98083582D01*
X155492006Y-98083582D01*
G37*
G36*
X116133643Y-99689781D02*
X116279415Y-99750162D01*
X116410611Y-99837824D01*
X116522176Y-99949389D01*
X116609838Y-100080585D01*
X116670219Y-100226357D01*
X116701000Y-100381107D01*
X116701000Y-100538893D01*
X116670219Y-100693643D01*
X116609838Y-100839415D01*
X116522176Y-100970611D01*
X116410611Y-101082176D01*
X116279415Y-101169838D01*
X116133643Y-101230219D01*
X115978893Y-101261000D01*
X115821107Y-101261000D01*
X115666357Y-101230219D01*
X115520585Y-101169838D01*
X115389389Y-101082176D01*
X115277824Y-100970611D01*
X115190162Y-100839415D01*
X115129781Y-100693643D01*
X115099000Y-100538893D01*
X115099000Y-100381107D01*
X115129781Y-100226357D01*
X115190162Y-100080585D01*
X115277824Y-99949389D01*
X115389389Y-99837824D01*
X115520585Y-99750162D01*
X115666357Y-99689781D01*
X115821107Y-99659000D01*
X115978893Y-99659000D01*
X116133643Y-99689781D01*
X116133643Y-99689781D01*
G37*
G36*
X117913643Y-98669781D02*
X118059415Y-98730162D01*
X118190611Y-98817824D01*
X118302176Y-98929389D01*
X118389838Y-99060585D01*
X118450219Y-99206357D01*
X118481000Y-99361107D01*
X118481000Y-99518893D01*
X118450219Y-99673643D01*
X118389838Y-99819415D01*
X118302176Y-99950611D01*
X118190611Y-100062176D01*
X118059415Y-100149838D01*
X117913643Y-100210219D01*
X117758893Y-100241000D01*
X117601107Y-100241000D01*
X117446357Y-100210219D01*
X117300585Y-100149838D01*
X117169389Y-100062176D01*
X117057824Y-99950611D01*
X116970162Y-99819415D01*
X116909781Y-99673643D01*
X116879000Y-99518893D01*
X116879000Y-99361107D01*
X116909781Y-99206357D01*
X116970162Y-99060585D01*
X117057824Y-98929389D01*
X117169389Y-98817824D01*
X117300585Y-98730162D01*
X117446357Y-98669781D01*
X117601107Y-98639000D01*
X117758893Y-98639000D01*
X117913643Y-98669781D01*
X117913643Y-98669781D01*
G37*
G36*
X116133643Y-97649781D02*
X116279415Y-97710162D01*
X116410611Y-97797824D01*
X116522176Y-97909389D01*
X116609838Y-98040585D01*
X116670219Y-98186357D01*
X116701000Y-98341107D01*
X116701000Y-98498893D01*
X116670219Y-98653643D01*
X116609838Y-98799415D01*
X116522176Y-98930611D01*
X116410611Y-99042176D01*
X116279415Y-99129838D01*
X116133643Y-99190219D01*
X115978893Y-99221000D01*
X115821107Y-99221000D01*
X115666357Y-99190219D01*
X115520585Y-99129838D01*
X115389389Y-99042176D01*
X115277824Y-98930611D01*
X115190162Y-98799415D01*
X115129781Y-98653643D01*
X115099000Y-98498893D01*
X115099000Y-98341107D01*
X115129781Y-98186357D01*
X115190162Y-98040585D01*
X115277824Y-97909389D01*
X115389389Y-97797824D01*
X115520585Y-97710162D01*
X115666357Y-97649781D01*
X115821107Y-97619000D01*
X115978893Y-97619000D01*
X116133643Y-97649781D01*
X116133643Y-97649781D01*
G37*
G36*
X117913643Y-96629781D02*
X118059415Y-96690162D01*
X118190611Y-96777824D01*
X118302176Y-96889389D01*
X118389838Y-97020585D01*
X118450219Y-97166357D01*
X118481000Y-97321107D01*
X118481000Y-97478893D01*
X118450219Y-97633643D01*
X118389838Y-97779415D01*
X118302176Y-97910611D01*
X118190611Y-98022176D01*
X118059415Y-98109838D01*
X117913643Y-98170219D01*
X117758893Y-98201000D01*
X117601107Y-98201000D01*
X117446357Y-98170219D01*
X117300585Y-98109838D01*
X117169389Y-98022176D01*
X117057824Y-97910611D01*
X116970162Y-97779415D01*
X116909781Y-97633643D01*
X116879000Y-97478893D01*
X116879000Y-97321107D01*
X116909781Y-97166357D01*
X116970162Y-97020585D01*
X117057824Y-96889389D01*
X117169389Y-96777824D01*
X117300585Y-96690162D01*
X117446357Y-96629781D01*
X117601107Y-96599000D01*
X117758893Y-96599000D01*
X117913643Y-96629781D01*
X117913643Y-96629781D01*
G37*
G36*
X158610561Y-95924011D02*
X158766889Y-95988764D01*
X158907583Y-96082773D01*
X159027227Y-96202417D01*
X159121236Y-96343111D01*
X159185989Y-96499439D01*
X159219000Y-96665396D01*
X159219000Y-96834604D01*
X159185989Y-97000561D01*
X159121236Y-97156889D01*
X159027227Y-97297583D01*
X158907583Y-97417227D01*
X158766889Y-97511236D01*
X158610561Y-97575989D01*
X158444604Y-97609000D01*
X158275396Y-97609000D01*
X158109439Y-97575989D01*
X157953111Y-97511236D01*
X157812417Y-97417227D01*
X157692773Y-97297583D01*
X157598764Y-97156889D01*
X157534011Y-97000561D01*
X157501000Y-96834604D01*
X157501000Y-96665396D01*
X157534011Y-96499439D01*
X157598764Y-96343111D01*
X157692773Y-96202417D01*
X157812417Y-96082773D01*
X157953111Y-95988764D01*
X158109439Y-95924011D01*
X158275396Y-95891000D01*
X158444604Y-95891000D01*
X158610561Y-95924011D01*
X158610561Y-95924011D01*
G37*
G36*
X138290561Y-95924011D02*
X138446889Y-95988764D01*
X138587583Y-96082773D01*
X138707227Y-96202417D01*
X138801236Y-96343111D01*
X138865989Y-96499439D01*
X138899000Y-96665396D01*
X138899000Y-96834604D01*
X138865989Y-97000561D01*
X138801236Y-97156889D01*
X138707227Y-97297583D01*
X138587583Y-97417227D01*
X138587580Y-97417229D01*
X138446889Y-97511236D01*
X138290561Y-97575989D01*
X138124604Y-97609000D01*
X137955396Y-97609000D01*
X137789439Y-97575989D01*
X137633111Y-97511236D01*
X137492420Y-97417229D01*
X137492417Y-97417227D01*
X137372773Y-97297583D01*
X137278764Y-97156889D01*
X137214011Y-97000561D01*
X137181000Y-96834604D01*
X137181000Y-96665396D01*
X137214011Y-96499439D01*
X137278764Y-96343111D01*
X137372773Y-96202417D01*
X137492417Y-96082773D01*
X137633111Y-95988764D01*
X137789439Y-95924011D01*
X137955396Y-95891000D01*
X138124604Y-95891000D01*
X138290561Y-95924011D01*
X138290561Y-95924011D01*
G37*
G36*
X116133643Y-95609781D02*
X116279415Y-95670162D01*
X116410611Y-95757824D01*
X116522176Y-95869389D01*
X116609838Y-96000585D01*
X116670219Y-96146357D01*
X116701000Y-96301107D01*
X116701000Y-96458893D01*
X116670219Y-96613643D01*
X116609838Y-96759415D01*
X116522176Y-96890611D01*
X116410611Y-97002176D01*
X116279415Y-97089838D01*
X116133643Y-97150219D01*
X115978893Y-97181000D01*
X115821107Y-97181000D01*
X115666357Y-97150219D01*
X115520585Y-97089838D01*
X115389389Y-97002176D01*
X115277824Y-96890611D01*
X115190162Y-96759415D01*
X115129781Y-96613643D01*
X115099000Y-96458893D01*
X115099000Y-96301107D01*
X115129781Y-96146357D01*
X115190162Y-96000585D01*
X115277824Y-95869389D01*
X115389389Y-95757824D01*
X115520585Y-95670162D01*
X115666357Y-95609781D01*
X115821107Y-95579000D01*
X115978893Y-95579000D01*
X116133643Y-95609781D01*
X116133643Y-95609781D01*
G37*
G36*
X117913643Y-94589781D02*
X118059415Y-94650162D01*
X118190611Y-94737824D01*
X118302176Y-94849389D01*
X118389838Y-94980585D01*
X118450219Y-95126357D01*
X118481000Y-95281107D01*
X118481000Y-95438893D01*
X118450219Y-95593643D01*
X118389838Y-95739415D01*
X118302176Y-95870611D01*
X118190611Y-95982176D01*
X118059415Y-96069838D01*
X117913643Y-96130219D01*
X117758893Y-96161000D01*
X117601107Y-96161000D01*
X117446357Y-96130219D01*
X117300585Y-96069838D01*
X117169389Y-95982176D01*
X117057824Y-95870611D01*
X116970162Y-95739415D01*
X116909781Y-95593643D01*
X116879000Y-95438893D01*
X116879000Y-95281107D01*
X116909781Y-95126357D01*
X116970162Y-94980585D01*
X117057824Y-94849389D01*
X117169389Y-94737824D01*
X117300585Y-94650162D01*
X117446357Y-94589781D01*
X117601107Y-94559000D01*
X117758893Y-94559000D01*
X117913643Y-94589781D01*
X117913643Y-94589781D01*
G37*
G36*
X138290561Y-93384011D02*
X138446889Y-93448764D01*
X138587583Y-93542773D01*
X138707227Y-93662417D01*
X138801236Y-93803111D01*
X138865989Y-93959439D01*
X138899000Y-94125396D01*
X138899000Y-94294604D01*
X138865989Y-94460561D01*
X138801236Y-94616889D01*
X138707227Y-94757583D01*
X138587583Y-94877227D01*
X138446889Y-94971236D01*
X138290561Y-95035989D01*
X138124604Y-95069000D01*
X137955396Y-95069000D01*
X137789439Y-95035989D01*
X137633111Y-94971236D01*
X137492417Y-94877227D01*
X137372773Y-94757583D01*
X137278764Y-94616889D01*
X137214011Y-94460561D01*
X137181000Y-94294604D01*
X137181000Y-94125396D01*
X137214011Y-93959439D01*
X137278764Y-93803111D01*
X137372773Y-93662417D01*
X137492417Y-93542773D01*
X137633111Y-93448764D01*
X137789439Y-93384011D01*
X137955396Y-93351000D01*
X138124604Y-93351000D01*
X138290561Y-93384011D01*
X138290561Y-93384011D01*
G37*
G36*
X158610561Y-93384011D02*
X158766889Y-93448764D01*
X158907583Y-93542773D01*
X159027227Y-93662417D01*
X159121236Y-93803111D01*
X159185989Y-93959439D01*
X159219000Y-94125396D01*
X159219000Y-94294604D01*
X159185989Y-94460561D01*
X159121236Y-94616889D01*
X159027227Y-94757583D01*
X158907583Y-94877227D01*
X158766889Y-94971236D01*
X158610561Y-95035989D01*
X158444604Y-95069000D01*
X158275396Y-95069000D01*
X158109439Y-95035989D01*
X157953111Y-94971236D01*
X157812417Y-94877227D01*
X157692773Y-94757583D01*
X157598764Y-94616889D01*
X157534011Y-94460561D01*
X157501000Y-94294604D01*
X157501000Y-94125396D01*
X157534011Y-93959439D01*
X157598764Y-93803111D01*
X157692773Y-93662417D01*
X157812417Y-93542773D01*
X157953111Y-93448764D01*
X158109439Y-93384011D01*
X158275396Y-93351000D01*
X158444604Y-93351000D01*
X158610561Y-93384011D01*
X158610561Y-93384011D01*
G37*
G36*
X113848871Y-90978408D02*
X114153883Y-91104748D01*
X114426538Y-91286930D01*
X114428390Y-91288168D01*
X114661832Y-91521610D01*
X114661834Y-91521613D01*
X114845252Y-91796117D01*
X114971592Y-92101129D01*
X115036000Y-92424928D01*
X115036000Y-92755072D01*
X114971592Y-93078871D01*
X114845252Y-93383883D01*
X114739086Y-93542771D01*
X114661832Y-93658390D01*
X114428390Y-93891832D01*
X114428387Y-93891834D01*
X114153883Y-94075252D01*
X113848871Y-94201592D01*
X113525072Y-94266000D01*
X113194928Y-94266000D01*
X112871129Y-94201592D01*
X112566117Y-94075252D01*
X112291613Y-93891834D01*
X112291610Y-93891832D01*
X112058168Y-93658390D01*
X111980914Y-93542771D01*
X111874748Y-93383883D01*
X111748408Y-93078871D01*
X111684000Y-92755072D01*
X111684000Y-92424928D01*
X111748408Y-92101129D01*
X111874748Y-91796117D01*
X112058166Y-91521613D01*
X112058168Y-91521610D01*
X112291610Y-91288168D01*
X112293462Y-91286930D01*
X112566117Y-91104748D01*
X112871129Y-90978408D01*
X113194928Y-90914000D01*
X113525072Y-90914000D01*
X113848871Y-90978408D01*
X113848871Y-90978408D01*
G37*
G36*
X158610561Y-90844011D02*
X158766889Y-90908764D01*
X158907583Y-91002773D01*
X159027227Y-91122417D01*
X159121236Y-91263111D01*
X159185989Y-91419439D01*
X159219000Y-91585396D01*
X159219000Y-91754604D01*
X159185989Y-91920561D01*
X159121236Y-92076889D01*
X159027227Y-92217583D01*
X158907583Y-92337227D01*
X158907580Y-92337229D01*
X158766889Y-92431236D01*
X158610561Y-92495989D01*
X158444604Y-92529000D01*
X158275396Y-92529000D01*
X158109439Y-92495989D01*
X157953111Y-92431236D01*
X157812420Y-92337229D01*
X157812417Y-92337227D01*
X157692773Y-92217583D01*
X157598764Y-92076889D01*
X157534011Y-91920561D01*
X157501000Y-91754604D01*
X157501000Y-91585396D01*
X157534011Y-91419439D01*
X157598764Y-91263111D01*
X157692773Y-91122417D01*
X157812417Y-91002773D01*
X157953111Y-90908764D01*
X158109439Y-90844011D01*
X158275396Y-90811000D01*
X158444604Y-90811000D01*
X158610561Y-90844011D01*
X158610561Y-90844011D01*
G37*
G36*
X138290561Y-90844011D02*
X138446889Y-90908764D01*
X138587583Y-91002773D01*
X138707227Y-91122417D01*
X138801236Y-91263111D01*
X138865989Y-91419439D01*
X138899000Y-91585396D01*
X138899000Y-91754604D01*
X138865989Y-91920561D01*
X138801236Y-92076889D01*
X138707227Y-92217583D01*
X138587583Y-92337227D01*
X138587580Y-92337229D01*
X138446889Y-92431236D01*
X138290561Y-92495989D01*
X138124604Y-92529000D01*
X137955396Y-92529000D01*
X137789439Y-92495989D01*
X137633111Y-92431236D01*
X137492420Y-92337229D01*
X137492417Y-92337227D01*
X137372773Y-92217583D01*
X137278764Y-92076889D01*
X137214011Y-91920561D01*
X137181000Y-91754604D01*
X137181000Y-91585396D01*
X137214011Y-91419439D01*
X137278764Y-91263111D01*
X137372773Y-91122417D01*
X137492417Y-91002773D01*
X137633111Y-90908764D01*
X137789439Y-90844011D01*
X137955396Y-90811000D01*
X138124604Y-90811000D01*
X138290561Y-90844011D01*
X138290561Y-90844011D01*
G37*
G36*
X138290561Y-88304011D02*
X138446889Y-88368764D01*
X138587583Y-88462773D01*
X138707227Y-88582417D01*
X138801236Y-88723111D01*
X138865989Y-88879439D01*
X138899000Y-89045396D01*
X138899000Y-89214604D01*
X138865989Y-89380561D01*
X138801236Y-89536889D01*
X138707227Y-89677583D01*
X138587583Y-89797227D01*
X138446889Y-89891236D01*
X138290561Y-89955989D01*
X138124604Y-89989000D01*
X137955396Y-89989000D01*
X137789439Y-89955989D01*
X137633111Y-89891236D01*
X137492417Y-89797227D01*
X137372773Y-89677583D01*
X137278764Y-89536889D01*
X137214011Y-89380561D01*
X137181000Y-89214604D01*
X137181000Y-89045396D01*
X137214011Y-88879439D01*
X137278764Y-88723111D01*
X137372773Y-88582417D01*
X137492417Y-88462773D01*
X137633111Y-88368764D01*
X137789439Y-88304011D01*
X137955396Y-88271000D01*
X138124604Y-88271000D01*
X138290561Y-88304011D01*
X138290561Y-88304011D01*
G37*
G36*
X158610561Y-88304011D02*
X158766889Y-88368764D01*
X158907583Y-88462773D01*
X159027227Y-88582417D01*
X159121236Y-88723111D01*
X159185989Y-88879439D01*
X159219000Y-89045396D01*
X159219000Y-89214604D01*
X159185989Y-89380561D01*
X159121236Y-89536889D01*
X159027227Y-89677583D01*
X158907583Y-89797227D01*
X158907580Y-89797229D01*
X158766889Y-89891236D01*
X158610561Y-89955989D01*
X158444604Y-89989000D01*
X158275396Y-89989000D01*
X158109439Y-89955989D01*
X157953111Y-89891236D01*
X157812420Y-89797229D01*
X157812417Y-89797227D01*
X157692773Y-89677583D01*
X157598764Y-89536889D01*
X157534011Y-89380561D01*
X157501000Y-89214604D01*
X157501000Y-89045396D01*
X157534011Y-88879439D01*
X157598764Y-88723111D01*
X157692773Y-88582417D01*
X157812417Y-88462773D01*
X157953111Y-88368764D01*
X158109439Y-88304011D01*
X158275396Y-88271000D01*
X158444604Y-88271000D01*
X158610561Y-88304011D01*
X158610561Y-88304011D01*
G37*
G36*
X113848871Y-84178408D02*
X114153883Y-84304748D01*
X114381578Y-84456889D01*
X114428390Y-84488168D01*
X114661832Y-84721610D01*
X114661834Y-84721613D01*
X114845252Y-84996117D01*
X114971592Y-85301129D01*
X115036000Y-85624928D01*
X115036000Y-85955072D01*
X114971592Y-86278871D01*
X114845252Y-86583883D01*
X114784634Y-86674604D01*
X114661832Y-86858390D01*
X114428390Y-87091832D01*
X114428387Y-87091834D01*
X114153883Y-87275252D01*
X113848871Y-87401592D01*
X113525072Y-87466000D01*
X113194928Y-87466000D01*
X112871129Y-87401592D01*
X112566117Y-87275252D01*
X112291613Y-87091834D01*
X112291610Y-87091832D01*
X112058168Y-86858390D01*
X111935366Y-86674604D01*
X111874748Y-86583883D01*
X111748408Y-86278871D01*
X111684000Y-85955072D01*
X111684000Y-85624928D01*
X111748408Y-85301129D01*
X111874748Y-84996117D01*
X112058166Y-84721613D01*
X112058168Y-84721610D01*
X112291610Y-84488168D01*
X112338422Y-84456889D01*
X112566117Y-84304748D01*
X112871129Y-84178408D01*
X113194928Y-84114000D01*
X113525072Y-84114000D01*
X113848871Y-84178408D01*
X113848871Y-84178408D01*
G37*
G36*
X158610561Y-85764011D02*
X158766889Y-85828764D01*
X158907583Y-85922773D01*
X159027227Y-86042417D01*
X159121236Y-86183111D01*
X159185989Y-86339439D01*
X159219000Y-86505396D01*
X159219000Y-86674604D01*
X159185989Y-86840561D01*
X159121236Y-86996889D01*
X159027227Y-87137583D01*
X158907583Y-87257227D01*
X158907580Y-87257229D01*
X158766889Y-87351236D01*
X158610561Y-87415989D01*
X158444604Y-87449000D01*
X158275396Y-87449000D01*
X158109439Y-87415989D01*
X157953111Y-87351236D01*
X157812420Y-87257229D01*
X157812417Y-87257227D01*
X157692773Y-87137583D01*
X157598764Y-86996889D01*
X157534011Y-86840561D01*
X157501000Y-86674604D01*
X157501000Y-86505396D01*
X157534011Y-86339439D01*
X157598764Y-86183111D01*
X157692773Y-86042417D01*
X157812417Y-85922773D01*
X157953111Y-85828764D01*
X158109439Y-85764011D01*
X158275396Y-85731000D01*
X158444604Y-85731000D01*
X158610561Y-85764011D01*
X158610561Y-85764011D01*
G37*
G36*
X138290561Y-85764011D02*
X138446889Y-85828764D01*
X138587583Y-85922773D01*
X138707227Y-86042417D01*
X138801236Y-86183111D01*
X138865989Y-86339439D01*
X138899000Y-86505396D01*
X138899000Y-86674604D01*
X138865989Y-86840561D01*
X138801236Y-86996889D01*
X138707227Y-87137583D01*
X138587583Y-87257227D01*
X138587580Y-87257229D01*
X138446889Y-87351236D01*
X138290561Y-87415989D01*
X138124604Y-87449000D01*
X137955396Y-87449000D01*
X137789439Y-87415989D01*
X137633111Y-87351236D01*
X137492420Y-87257229D01*
X137492417Y-87257227D01*
X137372773Y-87137583D01*
X137278764Y-86996889D01*
X137214011Y-86840561D01*
X137181000Y-86674604D01*
X137181000Y-86505396D01*
X137214011Y-86339439D01*
X137278764Y-86183111D01*
X137372773Y-86042417D01*
X137492417Y-85922773D01*
X137633111Y-85828764D01*
X137789439Y-85764011D01*
X137955396Y-85731000D01*
X138124604Y-85731000D01*
X138290561Y-85764011D01*
X138290561Y-85764011D01*
G37*
G36*
X138290561Y-83224011D02*
X138446889Y-83288764D01*
X138587583Y-83382773D01*
X138707227Y-83502417D01*
X138801236Y-83643111D01*
X138865989Y-83799439D01*
X138899000Y-83965396D01*
X138899000Y-84134604D01*
X138865989Y-84300561D01*
X138801236Y-84456889D01*
X138707227Y-84597583D01*
X138587583Y-84717227D01*
X138446889Y-84811236D01*
X138290561Y-84875989D01*
X138124604Y-84909000D01*
X137955396Y-84909000D01*
X137789439Y-84875989D01*
X137633111Y-84811236D01*
X137492417Y-84717227D01*
X137372773Y-84597583D01*
X137278764Y-84456889D01*
X137214011Y-84300561D01*
X137181000Y-84134604D01*
X137181000Y-83965396D01*
X137214011Y-83799439D01*
X137278764Y-83643111D01*
X137372773Y-83502417D01*
X137492417Y-83382773D01*
X137633111Y-83288764D01*
X137789439Y-83224011D01*
X137955396Y-83191000D01*
X138124604Y-83191000D01*
X138290561Y-83224011D01*
X138290561Y-83224011D01*
G37*
G36*
X158610561Y-83224011D02*
X158766889Y-83288764D01*
X158907583Y-83382773D01*
X159027227Y-83502417D01*
X159121236Y-83643111D01*
X159185989Y-83799439D01*
X159219000Y-83965396D01*
X159219000Y-84134604D01*
X159185989Y-84300561D01*
X159121236Y-84456889D01*
X159027227Y-84597583D01*
X158907583Y-84717227D01*
X158766889Y-84811236D01*
X158610561Y-84875989D01*
X158444604Y-84909000D01*
X158275396Y-84909000D01*
X158109439Y-84875989D01*
X157953111Y-84811236D01*
X157812417Y-84717227D01*
X157692773Y-84597583D01*
X157598764Y-84456889D01*
X157534011Y-84300561D01*
X157501000Y-84134604D01*
X157501000Y-83965396D01*
X157534011Y-83799439D01*
X157598764Y-83643111D01*
X157692773Y-83502417D01*
X157812417Y-83382773D01*
X157953111Y-83288764D01*
X158109439Y-83224011D01*
X158275396Y-83191000D01*
X158444604Y-83191000D01*
X158610561Y-83224011D01*
X158610561Y-83224011D01*
G37*
G36*
X117913643Y-81209781D02*
X118059415Y-81270162D01*
X118190611Y-81357824D01*
X118302176Y-81469389D01*
X118389838Y-81600585D01*
X118450219Y-81746357D01*
X118481000Y-81901107D01*
X118481000Y-82058893D01*
X118450219Y-82213643D01*
X118389838Y-82359415D01*
X118302176Y-82490611D01*
X118190611Y-82602176D01*
X118059415Y-82689838D01*
X117913643Y-82750219D01*
X117758893Y-82781000D01*
X117601107Y-82781000D01*
X117446357Y-82750219D01*
X117300585Y-82689838D01*
X117169389Y-82602176D01*
X117057824Y-82490611D01*
X116970163Y-82359417D01*
X116941485Y-82290182D01*
X116929934Y-82268572D01*
X116914388Y-82249630D01*
X116895446Y-82234084D01*
X116873835Y-82222533D01*
X116850386Y-82215420D01*
X116826000Y-82213018D01*
X116801614Y-82215420D01*
X116778164Y-82222533D01*
X116756554Y-82234084D01*
X116737612Y-82249630D01*
X116722066Y-82268572D01*
X116710515Y-82290183D01*
X116703402Y-82313632D01*
X116701000Y-82338018D01*
X116701000Y-83801000D01*
X115099000Y-83801000D01*
X115099000Y-82199000D01*
X116754556Y-82199000D01*
X116778942Y-82196598D01*
X116802391Y-82189485D01*
X116824002Y-82177934D01*
X116842944Y-82162388D01*
X116858490Y-82143446D01*
X116870041Y-82121835D01*
X116877154Y-82098386D01*
X116879556Y-82074000D01*
X116879000Y-82068352D01*
X116879000Y-81901107D01*
X116909781Y-81746357D01*
X116970162Y-81600585D01*
X117057824Y-81469389D01*
X117169389Y-81357824D01*
X117300585Y-81270162D01*
X117446357Y-81209781D01*
X117601107Y-81179000D01*
X117758893Y-81179000D01*
X117913643Y-81209781D01*
X117913643Y-81209781D01*
G37*
G36*
X138290561Y-80684011D02*
X138446889Y-80748764D01*
X138587583Y-80842773D01*
X138707227Y-80962417D01*
X138801236Y-81103111D01*
X138865989Y-81259439D01*
X138899000Y-81425396D01*
X138899000Y-81594604D01*
X138865989Y-81760561D01*
X138801236Y-81916889D01*
X138707227Y-82057583D01*
X138587583Y-82177227D01*
X138587580Y-82177229D01*
X138446889Y-82271236D01*
X138290561Y-82335989D01*
X138124604Y-82369000D01*
X137955396Y-82369000D01*
X137789439Y-82335989D01*
X137633111Y-82271236D01*
X137492420Y-82177229D01*
X137492417Y-82177227D01*
X137372773Y-82057583D01*
X137278764Y-81916889D01*
X137214011Y-81760561D01*
X137181000Y-81594604D01*
X137181000Y-81425396D01*
X137214011Y-81259439D01*
X137278764Y-81103111D01*
X137372773Y-80962417D01*
X137492417Y-80842773D01*
X137633111Y-80748764D01*
X137789439Y-80684011D01*
X137955396Y-80651000D01*
X138124604Y-80651000D01*
X138290561Y-80684011D01*
X138290561Y-80684011D01*
G37*
G36*
X158610561Y-80684011D02*
X158766889Y-80748764D01*
X158907583Y-80842773D01*
X159027227Y-80962417D01*
X159121236Y-81103111D01*
X159185989Y-81259439D01*
X159219000Y-81425396D01*
X159219000Y-81594604D01*
X159185989Y-81760561D01*
X159121236Y-81916889D01*
X159027227Y-82057583D01*
X158907583Y-82177227D01*
X158907580Y-82177229D01*
X158766889Y-82271236D01*
X158610561Y-82335989D01*
X158444604Y-82369000D01*
X158275396Y-82369000D01*
X158109439Y-82335989D01*
X157953111Y-82271236D01*
X157812420Y-82177229D01*
X157812417Y-82177227D01*
X157692773Y-82057583D01*
X157598764Y-81916889D01*
X157534011Y-81760561D01*
X157501000Y-81594604D01*
X157501000Y-81425396D01*
X157534011Y-81259439D01*
X157598764Y-81103111D01*
X157692773Y-80962417D01*
X157812417Y-80842773D01*
X157953111Y-80748764D01*
X158109439Y-80684011D01*
X158275396Y-80651000D01*
X158444604Y-80651000D01*
X158610561Y-80684011D01*
X158610561Y-80684011D01*
G37*
G36*
X116133643Y-80189781D02*
X116279415Y-80250162D01*
X116410611Y-80337824D01*
X116522176Y-80449389D01*
X116609838Y-80580585D01*
X116670219Y-80726357D01*
X116701000Y-80881107D01*
X116701000Y-81038893D01*
X116670219Y-81193643D01*
X116609838Y-81339415D01*
X116522176Y-81470611D01*
X116410611Y-81582176D01*
X116279415Y-81669838D01*
X116133643Y-81730219D01*
X115978893Y-81761000D01*
X115821107Y-81761000D01*
X115666357Y-81730219D01*
X115520585Y-81669838D01*
X115389389Y-81582176D01*
X115277824Y-81470611D01*
X115190162Y-81339415D01*
X115129781Y-81193643D01*
X115099000Y-81038893D01*
X115099000Y-80881107D01*
X115129781Y-80726357D01*
X115190162Y-80580585D01*
X115277824Y-80449389D01*
X115389389Y-80337824D01*
X115520585Y-80250162D01*
X115666357Y-80189781D01*
X115821107Y-80159000D01*
X115978893Y-80159000D01*
X116133643Y-80189781D01*
X116133643Y-80189781D01*
G37*
G36*
X117913643Y-79169781D02*
X118059415Y-79230162D01*
X118190611Y-79317824D01*
X118302176Y-79429389D01*
X118389838Y-79560585D01*
X118450219Y-79706357D01*
X118481000Y-79861107D01*
X118481000Y-80018893D01*
X118450219Y-80173643D01*
X118389838Y-80319415D01*
X118302176Y-80450611D01*
X118190611Y-80562176D01*
X118059415Y-80649838D01*
X117913643Y-80710219D01*
X117758893Y-80741000D01*
X117601107Y-80741000D01*
X117446357Y-80710219D01*
X117300585Y-80649838D01*
X117169389Y-80562176D01*
X117057824Y-80450611D01*
X116970162Y-80319415D01*
X116909781Y-80173643D01*
X116879000Y-80018893D01*
X116879000Y-79861107D01*
X116909781Y-79706357D01*
X116970162Y-79560585D01*
X117057824Y-79429389D01*
X117169389Y-79317824D01*
X117300585Y-79230162D01*
X117446357Y-79169781D01*
X117601107Y-79139000D01*
X117758893Y-79139000D01*
X117913643Y-79169781D01*
X117913643Y-79169781D01*
G37*
G36*
X158610561Y-78144011D02*
X158766889Y-78208764D01*
X158907583Y-78302773D01*
X159027227Y-78422417D01*
X159121236Y-78563111D01*
X159185989Y-78719439D01*
X159219000Y-78885396D01*
X159219000Y-79054604D01*
X159185989Y-79220561D01*
X159121236Y-79376889D01*
X159027227Y-79517583D01*
X158907583Y-79637227D01*
X158907580Y-79637229D01*
X158766889Y-79731236D01*
X158610561Y-79795989D01*
X158444604Y-79829000D01*
X158275396Y-79829000D01*
X158109439Y-79795989D01*
X157953111Y-79731236D01*
X157812420Y-79637229D01*
X157812417Y-79637227D01*
X157692773Y-79517583D01*
X157598764Y-79376889D01*
X157534011Y-79220561D01*
X157501000Y-79054604D01*
X157501000Y-78885396D01*
X157534011Y-78719439D01*
X157598764Y-78563111D01*
X157692773Y-78422417D01*
X157812417Y-78302773D01*
X157953111Y-78208764D01*
X158109439Y-78144011D01*
X158275396Y-78111000D01*
X158444604Y-78111000D01*
X158610561Y-78144011D01*
X158610561Y-78144011D01*
G37*
G36*
X138290561Y-78144011D02*
X138446889Y-78208764D01*
X138587583Y-78302773D01*
X138707227Y-78422417D01*
X138801236Y-78563111D01*
X138865989Y-78719439D01*
X138899000Y-78885396D01*
X138899000Y-79054604D01*
X138865989Y-79220561D01*
X138801236Y-79376889D01*
X138707227Y-79517583D01*
X138587583Y-79637227D01*
X138446889Y-79731236D01*
X138290561Y-79795989D01*
X138124604Y-79829000D01*
X137955396Y-79829000D01*
X137789439Y-79795989D01*
X137633111Y-79731236D01*
X137492417Y-79637227D01*
X137372773Y-79517583D01*
X137278764Y-79376889D01*
X137214011Y-79220561D01*
X137181000Y-79054604D01*
X137181000Y-78885396D01*
X137214011Y-78719439D01*
X137278764Y-78563111D01*
X137372773Y-78422417D01*
X137492417Y-78302773D01*
X137633111Y-78208764D01*
X137789439Y-78144011D01*
X137955396Y-78111000D01*
X138124604Y-78111000D01*
X138290561Y-78144011D01*
X138290561Y-78144011D01*
G37*
G36*
X116133643Y-78149781D02*
X116279415Y-78210162D01*
X116410611Y-78297824D01*
X116522176Y-78409389D01*
X116609838Y-78540585D01*
X116670219Y-78686357D01*
X116701000Y-78841107D01*
X116701000Y-78998893D01*
X116670219Y-79153643D01*
X116609838Y-79299415D01*
X116522176Y-79430611D01*
X116410611Y-79542176D01*
X116279415Y-79629838D01*
X116133643Y-79690219D01*
X115978893Y-79721000D01*
X115821107Y-79721000D01*
X115666357Y-79690219D01*
X115520585Y-79629838D01*
X115389389Y-79542176D01*
X115277824Y-79430611D01*
X115190162Y-79299415D01*
X115129781Y-79153643D01*
X115099000Y-78998893D01*
X115099000Y-78841107D01*
X115129781Y-78686357D01*
X115190162Y-78540585D01*
X115277824Y-78409389D01*
X115389389Y-78297824D01*
X115520585Y-78210162D01*
X115666357Y-78149781D01*
X115821107Y-78119000D01*
X115978893Y-78119000D01*
X116133643Y-78149781D01*
X116133643Y-78149781D01*
G37*
G36*
X117913643Y-77129781D02*
X118059415Y-77190162D01*
X118190611Y-77277824D01*
X118302176Y-77389389D01*
X118389838Y-77520585D01*
X118450219Y-77666357D01*
X118481000Y-77821107D01*
X118481000Y-77978893D01*
X118450219Y-78133643D01*
X118389838Y-78279415D01*
X118302176Y-78410611D01*
X118190611Y-78522176D01*
X118059415Y-78609838D01*
X117913643Y-78670219D01*
X117758893Y-78701000D01*
X117601107Y-78701000D01*
X117446357Y-78670219D01*
X117300585Y-78609838D01*
X117169389Y-78522176D01*
X117057824Y-78410611D01*
X116970162Y-78279415D01*
X116909781Y-78133643D01*
X116879000Y-77978893D01*
X116879000Y-77821107D01*
X116909781Y-77666357D01*
X116970162Y-77520585D01*
X117057824Y-77389389D01*
X117169389Y-77277824D01*
X117300585Y-77190162D01*
X117446357Y-77129781D01*
X117601107Y-77099000D01*
X117758893Y-77099000D01*
X117913643Y-77129781D01*
X117913643Y-77129781D01*
G37*
G36*
X116133643Y-76109781D02*
X116279415Y-76170162D01*
X116410611Y-76257824D01*
X116522176Y-76369389D01*
X116609838Y-76500585D01*
X116670219Y-76646357D01*
X116701000Y-76801107D01*
X116701000Y-76958893D01*
X116670219Y-77113643D01*
X116609838Y-77259415D01*
X116522176Y-77390611D01*
X116410611Y-77502176D01*
X116279415Y-77589838D01*
X116133643Y-77650219D01*
X115978893Y-77681000D01*
X115821107Y-77681000D01*
X115666357Y-77650219D01*
X115520585Y-77589838D01*
X115389389Y-77502176D01*
X115277824Y-77390611D01*
X115190162Y-77259415D01*
X115129781Y-77113643D01*
X115099000Y-76958893D01*
X115099000Y-76801107D01*
X115129781Y-76646357D01*
X115190162Y-76500585D01*
X115277824Y-76369389D01*
X115389389Y-76257824D01*
X115520585Y-76170162D01*
X115666357Y-76109781D01*
X115821107Y-76079000D01*
X115978893Y-76079000D01*
X116133643Y-76109781D01*
X116133643Y-76109781D01*
G37*
G36*
X158610561Y-75604011D02*
X158766889Y-75668764D01*
X158907583Y-75762773D01*
X159027227Y-75882417D01*
X159121236Y-76023111D01*
X159185989Y-76179439D01*
X159219000Y-76345396D01*
X159219000Y-76514604D01*
X159185989Y-76680561D01*
X159121236Y-76836889D01*
X159027227Y-76977583D01*
X158907583Y-77097227D01*
X158907580Y-77097229D01*
X158766889Y-77191236D01*
X158610561Y-77255989D01*
X158444604Y-77289000D01*
X158275396Y-77289000D01*
X158109439Y-77255989D01*
X157953111Y-77191236D01*
X157812420Y-77097229D01*
X157812417Y-77097227D01*
X157692773Y-76977583D01*
X157598764Y-76836889D01*
X157534011Y-76680561D01*
X157501000Y-76514604D01*
X157501000Y-76345396D01*
X157534011Y-76179439D01*
X157598764Y-76023111D01*
X157692773Y-75882417D01*
X157812417Y-75762773D01*
X157953111Y-75668764D01*
X158109439Y-75604011D01*
X158275396Y-75571000D01*
X158444604Y-75571000D01*
X158610561Y-75604011D01*
X158610561Y-75604011D01*
G37*
G36*
X138290561Y-75604011D02*
X138446889Y-75668764D01*
X138587583Y-75762773D01*
X138707227Y-75882417D01*
X138801236Y-76023111D01*
X138865989Y-76179439D01*
X138899000Y-76345396D01*
X138899000Y-76514604D01*
X138865989Y-76680561D01*
X138801236Y-76836889D01*
X138707227Y-76977583D01*
X138587583Y-77097227D01*
X138446889Y-77191236D01*
X138290561Y-77255989D01*
X138124604Y-77289000D01*
X137955396Y-77289000D01*
X137789439Y-77255989D01*
X137633111Y-77191236D01*
X137492417Y-77097227D01*
X137372773Y-76977583D01*
X137278764Y-76836889D01*
X137214011Y-76680561D01*
X137181000Y-76514604D01*
X137181000Y-76345396D01*
X137214011Y-76179439D01*
X137278764Y-76023111D01*
X137372773Y-75882417D01*
X137492417Y-75762773D01*
X137633111Y-75668764D01*
X137789439Y-75604011D01*
X137955396Y-75571000D01*
X138124604Y-75571000D01*
X138290561Y-75604011D01*
X138290561Y-75604011D01*
G37*
G36*
X117913643Y-75089781D02*
X118059415Y-75150162D01*
X118190611Y-75237824D01*
X118302176Y-75349389D01*
X118389838Y-75480585D01*
X118450219Y-75626357D01*
X118481000Y-75781107D01*
X118481000Y-75938893D01*
X118450219Y-76093643D01*
X118389838Y-76239415D01*
X118302176Y-76370611D01*
X118190611Y-76482176D01*
X118059415Y-76569838D01*
X117913643Y-76630219D01*
X117758893Y-76661000D01*
X117601107Y-76661000D01*
X117446357Y-76630219D01*
X117300585Y-76569838D01*
X117169389Y-76482176D01*
X117057824Y-76370611D01*
X116970162Y-76239415D01*
X116909781Y-76093643D01*
X116879000Y-75938893D01*
X116879000Y-75781107D01*
X116909781Y-75626357D01*
X116970162Y-75480585D01*
X117057824Y-75349389D01*
X117169389Y-75237824D01*
X117300585Y-75150162D01*
X117446357Y-75089781D01*
X117601107Y-75059000D01*
X117758893Y-75059000D01*
X117913643Y-75089781D01*
X117913643Y-75089781D01*
G37*
G36*
X113848871Y-71478408D02*
X114153883Y-71604748D01*
X114381578Y-71756889D01*
X114428390Y-71788168D01*
X114661832Y-72021610D01*
X114661834Y-72021613D01*
X114845252Y-72296117D01*
X114971592Y-72601129D01*
X115036000Y-72924928D01*
X115036000Y-73255072D01*
X114971592Y-73578871D01*
X114845252Y-73883883D01*
X114784634Y-73974604D01*
X114661832Y-74158390D01*
X114428390Y-74391832D01*
X114428387Y-74391834D01*
X114153883Y-74575252D01*
X113848871Y-74701592D01*
X113525072Y-74766000D01*
X113194928Y-74766000D01*
X112871129Y-74701592D01*
X112566117Y-74575252D01*
X112291613Y-74391834D01*
X112291610Y-74391832D01*
X112058168Y-74158390D01*
X111935366Y-73974604D01*
X111874748Y-73883883D01*
X111748408Y-73578871D01*
X111684000Y-73255072D01*
X111684000Y-72924928D01*
X111748408Y-72601129D01*
X111874748Y-72296117D01*
X112058166Y-72021613D01*
X112058168Y-72021610D01*
X112291610Y-71788168D01*
X112338422Y-71756889D01*
X112566117Y-71604748D01*
X112871129Y-71478408D01*
X113194928Y-71414000D01*
X113525072Y-71414000D01*
X113848871Y-71478408D01*
X113848871Y-71478408D01*
G37*
G36*
X138290561Y-73064011D02*
X138446889Y-73128764D01*
X138587583Y-73222773D01*
X138707227Y-73342417D01*
X138801236Y-73483111D01*
X138865989Y-73639439D01*
X138899000Y-73805396D01*
X138899000Y-73974604D01*
X138865989Y-74140561D01*
X138801236Y-74296889D01*
X138707227Y-74437583D01*
X138587583Y-74557227D01*
X138587580Y-74557229D01*
X138446889Y-74651236D01*
X138290561Y-74715989D01*
X138124604Y-74749000D01*
X137955396Y-74749000D01*
X137789439Y-74715989D01*
X137633111Y-74651236D01*
X137492420Y-74557229D01*
X137492417Y-74557227D01*
X137372773Y-74437583D01*
X137278764Y-74296889D01*
X137214011Y-74140561D01*
X137181000Y-73974604D01*
X137181000Y-73805396D01*
X137214011Y-73639439D01*
X137278764Y-73483111D01*
X137372773Y-73342417D01*
X137492417Y-73222773D01*
X137633111Y-73128764D01*
X137789439Y-73064011D01*
X137955396Y-73031000D01*
X138124604Y-73031000D01*
X138290561Y-73064011D01*
X138290561Y-73064011D01*
G37*
G36*
X158610561Y-73064011D02*
X158766889Y-73128764D01*
X158907583Y-73222773D01*
X159027227Y-73342417D01*
X159121236Y-73483111D01*
X159185989Y-73639439D01*
X159219000Y-73805396D01*
X159219000Y-73974604D01*
X159185989Y-74140561D01*
X159121236Y-74296889D01*
X159027227Y-74437583D01*
X158907583Y-74557227D01*
X158907580Y-74557229D01*
X158766889Y-74651236D01*
X158610561Y-74715989D01*
X158444604Y-74749000D01*
X158275396Y-74749000D01*
X158109439Y-74715989D01*
X157953111Y-74651236D01*
X157812420Y-74557229D01*
X157812417Y-74557227D01*
X157692773Y-74437583D01*
X157598764Y-74296889D01*
X157534011Y-74140561D01*
X157501000Y-73974604D01*
X157501000Y-73805396D01*
X157534011Y-73639439D01*
X157598764Y-73483111D01*
X157692773Y-73342417D01*
X157812417Y-73222773D01*
X157953111Y-73128764D01*
X158109439Y-73064011D01*
X158275396Y-73031000D01*
X158444604Y-73031000D01*
X158610561Y-73064011D01*
X158610561Y-73064011D01*
G37*
G36*
X158610561Y-70524011D02*
X158766889Y-70588764D01*
X158907583Y-70682773D01*
X159027227Y-70802417D01*
X159121236Y-70943111D01*
X159185989Y-71099439D01*
X159219000Y-71265396D01*
X159219000Y-71434604D01*
X159185989Y-71600561D01*
X159121236Y-71756889D01*
X159027227Y-71897583D01*
X158907583Y-72017227D01*
X158766889Y-72111236D01*
X158610561Y-72175989D01*
X158444604Y-72209000D01*
X158275396Y-72209000D01*
X158109439Y-72175989D01*
X157953111Y-72111236D01*
X157812417Y-72017227D01*
X157692773Y-71897583D01*
X157598764Y-71756889D01*
X157534011Y-71600561D01*
X157501000Y-71434604D01*
X157501000Y-71265396D01*
X157534011Y-71099439D01*
X157598764Y-70943111D01*
X157692773Y-70802417D01*
X157812417Y-70682773D01*
X157953111Y-70588764D01*
X158109439Y-70524011D01*
X158275396Y-70491000D01*
X158444604Y-70491000D01*
X158610561Y-70524011D01*
X158610561Y-70524011D01*
G37*
G36*
X138290561Y-70524011D02*
X138446889Y-70588764D01*
X138587583Y-70682773D01*
X138707227Y-70802417D01*
X138801236Y-70943111D01*
X138865989Y-71099439D01*
X138899000Y-71265396D01*
X138899000Y-71434604D01*
X138865989Y-71600561D01*
X138801236Y-71756889D01*
X138707227Y-71897583D01*
X138587583Y-72017227D01*
X138587580Y-72017229D01*
X138446889Y-72111236D01*
X138290561Y-72175989D01*
X138124604Y-72209000D01*
X137955396Y-72209000D01*
X137789439Y-72175989D01*
X137633111Y-72111236D01*
X137492420Y-72017229D01*
X137492417Y-72017227D01*
X137372773Y-71897583D01*
X137278764Y-71756889D01*
X137214011Y-71600561D01*
X137181000Y-71434604D01*
X137181000Y-71265396D01*
X137214011Y-71099439D01*
X137278764Y-70943111D01*
X137372773Y-70802417D01*
X137492417Y-70682773D01*
X137633111Y-70588764D01*
X137789439Y-70524011D01*
X137955396Y-70491000D01*
X138124604Y-70491000D01*
X138290561Y-70524011D01*
X138290561Y-70524011D01*
G37*
G36*
X138290561Y-67984011D02*
X138446889Y-68048764D01*
X138587583Y-68142773D01*
X138707227Y-68262417D01*
X138801236Y-68403111D01*
X138865989Y-68559439D01*
X138899000Y-68725396D01*
X138899000Y-68894604D01*
X138865989Y-69060561D01*
X138801236Y-69216889D01*
X138707227Y-69357583D01*
X138587583Y-69477227D01*
X138446889Y-69571236D01*
X138290561Y-69635989D01*
X138124604Y-69669000D01*
X137955396Y-69669000D01*
X137789439Y-69635989D01*
X137633111Y-69571236D01*
X137492417Y-69477227D01*
X137372773Y-69357583D01*
X137278764Y-69216889D01*
X137214011Y-69060561D01*
X137181000Y-68894604D01*
X137181000Y-68725396D01*
X137214011Y-68559439D01*
X137278764Y-68403111D01*
X137372773Y-68262417D01*
X137492417Y-68142773D01*
X137633111Y-68048764D01*
X137789439Y-67984011D01*
X137955396Y-67951000D01*
X138124604Y-67951000D01*
X138290561Y-67984011D01*
X138290561Y-67984011D01*
G37*
G36*
X158610561Y-67984011D02*
X158766889Y-68048764D01*
X158907583Y-68142773D01*
X159027227Y-68262417D01*
X159121236Y-68403111D01*
X159185989Y-68559439D01*
X159219000Y-68725396D01*
X159219000Y-68894604D01*
X159185989Y-69060561D01*
X159121236Y-69216889D01*
X159027227Y-69357583D01*
X158907583Y-69477227D01*
X158766889Y-69571236D01*
X158610561Y-69635989D01*
X158444604Y-69669000D01*
X158275396Y-69669000D01*
X158109439Y-69635989D01*
X157953111Y-69571236D01*
X157812417Y-69477227D01*
X157692773Y-69357583D01*
X157598764Y-69216889D01*
X157534011Y-69060561D01*
X157501000Y-68894604D01*
X157501000Y-68725396D01*
X157534011Y-68559439D01*
X157598764Y-68403111D01*
X157692773Y-68262417D01*
X157812417Y-68142773D01*
X157953111Y-68048764D01*
X158109439Y-67984011D01*
X158275396Y-67951000D01*
X158444604Y-67951000D01*
X158610561Y-67984011D01*
X158610561Y-67984011D01*
G37*
G36*
X113848871Y-64478408D02*
X114153883Y-64604748D01*
X114426538Y-64786930D01*
X114428390Y-64788168D01*
X114661832Y-65021610D01*
X114661834Y-65021613D01*
X114845252Y-65296117D01*
X114971592Y-65601129D01*
X115036000Y-65924928D01*
X115036000Y-66255072D01*
X114971592Y-66578871D01*
X114845252Y-66883883D01*
X114703527Y-67095989D01*
X114661832Y-67158390D01*
X114428390Y-67391832D01*
X114428387Y-67391834D01*
X114153883Y-67575252D01*
X113848871Y-67701592D01*
X113525072Y-67766000D01*
X113194928Y-67766000D01*
X112871129Y-67701592D01*
X112566117Y-67575252D01*
X112291613Y-67391834D01*
X112291610Y-67391832D01*
X112058168Y-67158390D01*
X112016473Y-67095989D01*
X111874748Y-66883883D01*
X111748408Y-66578871D01*
X111684000Y-66255072D01*
X111684000Y-65924928D01*
X111748408Y-65601129D01*
X111874748Y-65296117D01*
X112058166Y-65021613D01*
X112058168Y-65021610D01*
X112291610Y-64788168D01*
X112293462Y-64786930D01*
X112566117Y-64604748D01*
X112871129Y-64478408D01*
X113194928Y-64414000D01*
X113525072Y-64414000D01*
X113848871Y-64478408D01*
X113848871Y-64478408D01*
G37*
G36*
X138290561Y-65444011D02*
X138446889Y-65508764D01*
X138587583Y-65602773D01*
X138707227Y-65722417D01*
X138801236Y-65863111D01*
X138865989Y-66019439D01*
X138899000Y-66185396D01*
X138899000Y-66354604D01*
X138865989Y-66520561D01*
X138801236Y-66676889D01*
X138707227Y-66817583D01*
X138587583Y-66937227D01*
X138446889Y-67031236D01*
X138290561Y-67095989D01*
X138124604Y-67129000D01*
X137955396Y-67129000D01*
X137789439Y-67095989D01*
X137633111Y-67031236D01*
X137492417Y-66937227D01*
X137372773Y-66817583D01*
X137278764Y-66676889D01*
X137214011Y-66520561D01*
X137181000Y-66354604D01*
X137181000Y-66185396D01*
X137214011Y-66019439D01*
X137278764Y-65863111D01*
X137372773Y-65722417D01*
X137492417Y-65602773D01*
X137633111Y-65508764D01*
X137789439Y-65444011D01*
X137955396Y-65411000D01*
X138124604Y-65411000D01*
X138290561Y-65444011D01*
X138290561Y-65444011D01*
G37*
G36*
X138290561Y-62904011D02*
X138446889Y-62968764D01*
X138587583Y-63062773D01*
X138707227Y-63182417D01*
X138801236Y-63323111D01*
X138865989Y-63479439D01*
X138899000Y-63645396D01*
X138899000Y-63814604D01*
X138865989Y-63980561D01*
X138801236Y-64136889D01*
X138707227Y-64277583D01*
X138587583Y-64397227D01*
X138446889Y-64491236D01*
X138290561Y-64555989D01*
X138124604Y-64589000D01*
X137955396Y-64589000D01*
X137789439Y-64555989D01*
X137633111Y-64491236D01*
X137492417Y-64397227D01*
X137372773Y-64277583D01*
X137278764Y-64136889D01*
X137214011Y-63980561D01*
X137181000Y-63814604D01*
X137181000Y-63645396D01*
X137214011Y-63479439D01*
X137278764Y-63323111D01*
X137372773Y-63182417D01*
X137492417Y-63062773D01*
X137633111Y-62968764D01*
X137789439Y-62904011D01*
X137955396Y-62871000D01*
X138124604Y-62871000D01*
X138290561Y-62904011D01*
X138290561Y-62904011D01*
G37*
G36*
X117913643Y-61509781D02*
X118059415Y-61570162D01*
X118190611Y-61657824D01*
X118302176Y-61769389D01*
X118389838Y-61900585D01*
X118450219Y-62046357D01*
X118481000Y-62201107D01*
X118481000Y-62358893D01*
X118450219Y-62513643D01*
X118389838Y-62659415D01*
X118302176Y-62790611D01*
X118190611Y-62902176D01*
X118059415Y-62989838D01*
X117913643Y-63050219D01*
X117758893Y-63081000D01*
X117601107Y-63081000D01*
X117446357Y-63050219D01*
X117300585Y-62989838D01*
X117169389Y-62902176D01*
X117057824Y-62790611D01*
X116970163Y-62659417D01*
X116941485Y-62590182D01*
X116929934Y-62568572D01*
X116914388Y-62549630D01*
X116895446Y-62534084D01*
X116873835Y-62522533D01*
X116850386Y-62515420D01*
X116826000Y-62513018D01*
X116801614Y-62515420D01*
X116778164Y-62522533D01*
X116756554Y-62534084D01*
X116737612Y-62549630D01*
X116722066Y-62568572D01*
X116710515Y-62590183D01*
X116703402Y-62613632D01*
X116701000Y-62638018D01*
X116701000Y-64101000D01*
X115099000Y-64101000D01*
X115099000Y-62499000D01*
X116754556Y-62499000D01*
X116778942Y-62496598D01*
X116802391Y-62489485D01*
X116824002Y-62477934D01*
X116842944Y-62462388D01*
X116858490Y-62443446D01*
X116870041Y-62421835D01*
X116877154Y-62398386D01*
X116879556Y-62374000D01*
X116879000Y-62368352D01*
X116879000Y-62201107D01*
X116909781Y-62046357D01*
X116970162Y-61900585D01*
X117057824Y-61769389D01*
X117169389Y-61657824D01*
X117300585Y-61570162D01*
X117446357Y-61509781D01*
X117601107Y-61479000D01*
X117758893Y-61479000D01*
X117913643Y-61509781D01*
X117913643Y-61509781D01*
G37*
G36*
X116133643Y-60489781D02*
X116279415Y-60550162D01*
X116410611Y-60637824D01*
X116522176Y-60749389D01*
X116609838Y-60880585D01*
X116670219Y-61026357D01*
X116701000Y-61181107D01*
X116701000Y-61338893D01*
X116670219Y-61493643D01*
X116609838Y-61639415D01*
X116522176Y-61770611D01*
X116410611Y-61882176D01*
X116279415Y-61969838D01*
X116133643Y-62030219D01*
X115978893Y-62061000D01*
X115821107Y-62061000D01*
X115666357Y-62030219D01*
X115520585Y-61969838D01*
X115389389Y-61882176D01*
X115277824Y-61770611D01*
X115190162Y-61639415D01*
X115129781Y-61493643D01*
X115099000Y-61338893D01*
X115099000Y-61181107D01*
X115129781Y-61026357D01*
X115190162Y-60880585D01*
X115277824Y-60749389D01*
X115389389Y-60637824D01*
X115520585Y-60550162D01*
X115666357Y-60489781D01*
X115821107Y-60459000D01*
X115978893Y-60459000D01*
X116133643Y-60489781D01*
X116133643Y-60489781D01*
G37*
G36*
X138290561Y-60364011D02*
X138446889Y-60428764D01*
X138587583Y-60522773D01*
X138707227Y-60642417D01*
X138801236Y-60783111D01*
X138865989Y-60939439D01*
X138899000Y-61105396D01*
X138899000Y-61274604D01*
X138865989Y-61440561D01*
X138801236Y-61596889D01*
X138707227Y-61737583D01*
X138587583Y-61857227D01*
X138446889Y-61951236D01*
X138290561Y-62015989D01*
X138124604Y-62049000D01*
X137955396Y-62049000D01*
X137789439Y-62015989D01*
X137633111Y-61951236D01*
X137492417Y-61857227D01*
X137372773Y-61737583D01*
X137278764Y-61596889D01*
X137214011Y-61440561D01*
X137181000Y-61274604D01*
X137181000Y-61105396D01*
X137214011Y-60939439D01*
X137278764Y-60783111D01*
X137372773Y-60642417D01*
X137492417Y-60522773D01*
X137633111Y-60428764D01*
X137789439Y-60364011D01*
X137955396Y-60331000D01*
X138124604Y-60331000D01*
X138290561Y-60364011D01*
X138290561Y-60364011D01*
G37*
G36*
X117913643Y-59469781D02*
X118059415Y-59530162D01*
X118190611Y-59617824D01*
X118302176Y-59729389D01*
X118389838Y-59860585D01*
X118450219Y-60006357D01*
X118481000Y-60161107D01*
X118481000Y-60318893D01*
X118450219Y-60473643D01*
X118389838Y-60619415D01*
X118302176Y-60750611D01*
X118190611Y-60862176D01*
X118059415Y-60949838D01*
X117913643Y-61010219D01*
X117758893Y-61041000D01*
X117601107Y-61041000D01*
X117446357Y-61010219D01*
X117300585Y-60949838D01*
X117169389Y-60862176D01*
X117057824Y-60750611D01*
X116970162Y-60619415D01*
X116909781Y-60473643D01*
X116879000Y-60318893D01*
X116879000Y-60161107D01*
X116909781Y-60006357D01*
X116970162Y-59860585D01*
X117057824Y-59729389D01*
X117169389Y-59617824D01*
X117300585Y-59530162D01*
X117446357Y-59469781D01*
X117601107Y-59439000D01*
X117758893Y-59439000D01*
X117913643Y-59469781D01*
X117913643Y-59469781D01*
G37*
G36*
X116133643Y-58449781D02*
X116279415Y-58510162D01*
X116410611Y-58597824D01*
X116522176Y-58709389D01*
X116609838Y-58840585D01*
X116670219Y-58986357D01*
X116701000Y-59141107D01*
X116701000Y-59298893D01*
X116670219Y-59453643D01*
X116609838Y-59599415D01*
X116522176Y-59730611D01*
X116410611Y-59842176D01*
X116279415Y-59929838D01*
X116133643Y-59990219D01*
X115978893Y-60021000D01*
X115821107Y-60021000D01*
X115666357Y-59990219D01*
X115520585Y-59929838D01*
X115389389Y-59842176D01*
X115277824Y-59730611D01*
X115190162Y-59599415D01*
X115129781Y-59453643D01*
X115099000Y-59298893D01*
X115099000Y-59141107D01*
X115129781Y-58986357D01*
X115190162Y-58840585D01*
X115277824Y-58709389D01*
X115389389Y-58597824D01*
X115520585Y-58510162D01*
X115666357Y-58449781D01*
X115821107Y-58419000D01*
X115978893Y-58419000D01*
X116133643Y-58449781D01*
X116133643Y-58449781D01*
G37*
G36*
X138290561Y-57824011D02*
X138446889Y-57888764D01*
X138587583Y-57982773D01*
X138707227Y-58102417D01*
X138801236Y-58243111D01*
X138865989Y-58399439D01*
X138899000Y-58565396D01*
X138899000Y-58734604D01*
X138865989Y-58900561D01*
X138801236Y-59056889D01*
X138707227Y-59197583D01*
X138587583Y-59317227D01*
X138587580Y-59317229D01*
X138446889Y-59411236D01*
X138290561Y-59475989D01*
X138124604Y-59509000D01*
X137955396Y-59509000D01*
X137789439Y-59475989D01*
X137633111Y-59411236D01*
X137492420Y-59317229D01*
X137492417Y-59317227D01*
X137372773Y-59197583D01*
X137278764Y-59056889D01*
X137214011Y-58900561D01*
X137181000Y-58734604D01*
X137181000Y-58565396D01*
X137214011Y-58399439D01*
X137278764Y-58243111D01*
X137372773Y-58102417D01*
X137492417Y-57982773D01*
X137633111Y-57888764D01*
X137789439Y-57824011D01*
X137955396Y-57791000D01*
X138124604Y-57791000D01*
X138290561Y-57824011D01*
X138290561Y-57824011D01*
G37*
G36*
X117913643Y-57429781D02*
X118059415Y-57490162D01*
X118190611Y-57577824D01*
X118302176Y-57689389D01*
X118389838Y-57820585D01*
X118450219Y-57966357D01*
X118481000Y-58121107D01*
X118481000Y-58278893D01*
X118450219Y-58433643D01*
X118389838Y-58579415D01*
X118302176Y-58710611D01*
X118190611Y-58822176D01*
X118059415Y-58909838D01*
X117913643Y-58970219D01*
X117758893Y-59001000D01*
X117601107Y-59001000D01*
X117446357Y-58970219D01*
X117300585Y-58909838D01*
X117169389Y-58822176D01*
X117057824Y-58710611D01*
X116970162Y-58579415D01*
X116909781Y-58433643D01*
X116879000Y-58278893D01*
X116879000Y-58121107D01*
X116909781Y-57966357D01*
X116970162Y-57820585D01*
X117057824Y-57689389D01*
X117169389Y-57577824D01*
X117300585Y-57490162D01*
X117446357Y-57429781D01*
X117601107Y-57399000D01*
X117758893Y-57399000D01*
X117913643Y-57429781D01*
X117913643Y-57429781D01*
G37*
G36*
X116133643Y-56409781D02*
X116279415Y-56470162D01*
X116410611Y-56557824D01*
X116522176Y-56669389D01*
X116609838Y-56800585D01*
X116670219Y-56946357D01*
X116701000Y-57101107D01*
X116701000Y-57258893D01*
X116670219Y-57413643D01*
X116609838Y-57559415D01*
X116522176Y-57690611D01*
X116410611Y-57802176D01*
X116279415Y-57889838D01*
X116133643Y-57950219D01*
X115978893Y-57981000D01*
X115821107Y-57981000D01*
X115666357Y-57950219D01*
X115520585Y-57889838D01*
X115389389Y-57802176D01*
X115277824Y-57690611D01*
X115190162Y-57559415D01*
X115129781Y-57413643D01*
X115099000Y-57258893D01*
X115099000Y-57101107D01*
X115129781Y-56946357D01*
X115190162Y-56800585D01*
X115277824Y-56669389D01*
X115389389Y-56557824D01*
X115520585Y-56470162D01*
X115666357Y-56409781D01*
X115821107Y-56379000D01*
X115978893Y-56379000D01*
X116133643Y-56409781D01*
X116133643Y-56409781D01*
G37*
G36*
X117913643Y-55389781D02*
X118059415Y-55450162D01*
X118190611Y-55537824D01*
X118302176Y-55649389D01*
X118389838Y-55780585D01*
X118450219Y-55926357D01*
X118481000Y-56081107D01*
X118481000Y-56238893D01*
X118450219Y-56393643D01*
X118389838Y-56539415D01*
X118302176Y-56670611D01*
X118190611Y-56782176D01*
X118059415Y-56869838D01*
X117913643Y-56930219D01*
X117758893Y-56961000D01*
X117601107Y-56961000D01*
X117446357Y-56930219D01*
X117300585Y-56869838D01*
X117169389Y-56782176D01*
X117057824Y-56670611D01*
X116970162Y-56539415D01*
X116909781Y-56393643D01*
X116879000Y-56238893D01*
X116879000Y-56081107D01*
X116909781Y-55926357D01*
X116970162Y-55780585D01*
X117057824Y-55649389D01*
X117169389Y-55537824D01*
X117300585Y-55450162D01*
X117446357Y-55389781D01*
X117601107Y-55359000D01*
X117758893Y-55359000D01*
X117913643Y-55389781D01*
X117913643Y-55389781D01*
G37*
G36*
X156642006Y-51633582D02*
X157042565Y-51799499D01*
X157403059Y-52040373D01*
X157709627Y-52346941D01*
X157950501Y-52707435D01*
X158116418Y-53107994D01*
X158201000Y-53533219D01*
X158201000Y-53966781D01*
X158116418Y-54392006D01*
X157950501Y-54792565D01*
X157709627Y-55153059D01*
X157403059Y-55459627D01*
X157042565Y-55700501D01*
X156642006Y-55866418D01*
X156216781Y-55951000D01*
X155783219Y-55951000D01*
X155357994Y-55866418D01*
X154957435Y-55700501D01*
X154596941Y-55459627D01*
X154290373Y-55153059D01*
X154049499Y-54792565D01*
X153883582Y-54392006D01*
X153799000Y-53966781D01*
X153799000Y-53533219D01*
X153883582Y-53107994D01*
X154049499Y-52707435D01*
X154290373Y-52346941D01*
X154596941Y-52040373D01*
X154957435Y-51799499D01*
X155357994Y-51633582D01*
X155783219Y-51549000D01*
X156216781Y-51549000D01*
X156642006Y-51633582D01*
X156642006Y-51633582D01*
G37*
G36*
X113848871Y-51778408D02*
X114153883Y-51904748D01*
X114356857Y-52040371D01*
X114428390Y-52088168D01*
X114661832Y-52321610D01*
X114661834Y-52321613D01*
X114845252Y-52596117D01*
X114971592Y-52901129D01*
X115036000Y-53224928D01*
X115036000Y-53555072D01*
X114971592Y-53878871D01*
X114845252Y-54183883D01*
X114706188Y-54392006D01*
X114661832Y-54458390D01*
X114428390Y-54691832D01*
X114428387Y-54691834D01*
X114153883Y-54875252D01*
X113848871Y-55001592D01*
X113525072Y-55066000D01*
X113194928Y-55066000D01*
X112871129Y-55001592D01*
X112566117Y-54875252D01*
X112291613Y-54691834D01*
X112291610Y-54691832D01*
X112058168Y-54458390D01*
X112013812Y-54392006D01*
X111874748Y-54183883D01*
X111748408Y-53878871D01*
X111684000Y-53555072D01*
X111684000Y-53224928D01*
X111748408Y-52901129D01*
X111874748Y-52596117D01*
X112058166Y-52321613D01*
X112058168Y-52321610D01*
X112291610Y-52088168D01*
X112363143Y-52040371D01*
X112566117Y-51904748D01*
X112871129Y-51778408D01*
X113194928Y-51714000D01*
X113525072Y-51714000D01*
X113848871Y-51778408D01*
X113848871Y-51778408D01*
G37*
G36*
X111942006Y-45383582D02*
X112342565Y-45549499D01*
X112703059Y-45790373D01*
X113009627Y-46096941D01*
X113250501Y-46457435D01*
X113416418Y-46857994D01*
X113501000Y-47283219D01*
X113501000Y-47716781D01*
X113416418Y-48142006D01*
X113250501Y-48542565D01*
X113009627Y-48903059D01*
X112703059Y-49209627D01*
X112342565Y-49450501D01*
X111942006Y-49616418D01*
X111516781Y-49701000D01*
X111083219Y-49701000D01*
X110657994Y-49616418D01*
X110257435Y-49450501D01*
X109896941Y-49209627D01*
X109590373Y-48903059D01*
X109349499Y-48542565D01*
X109183582Y-48142006D01*
X109099000Y-47716781D01*
X109099000Y-47283219D01*
X109183582Y-46857994D01*
X109349499Y-46457435D01*
X109590373Y-46096941D01*
X109896941Y-45790373D01*
X110257435Y-45549499D01*
X110657994Y-45383582D01*
X111083219Y-45299000D01*
X111516781Y-45299000D01*
X111942006Y-45383582D01*
X111942006Y-45383582D01*
G37*
G36*
X124001000Y-48901000D02*
X122199000Y-48901000D01*
X122199000Y-47099000D01*
X124001000Y-47099000D01*
X124001000Y-48901000D01*
X124001000Y-48901000D01*
G37*
G36*
X120670442Y-47105518D02*
X120736627Y-47112037D01*
X120849853Y-47146384D01*
X120906467Y-47163557D01*
X121016218Y-47222221D01*
X121062991Y-47247222D01*
X121098729Y-47276552D01*
X121200186Y-47359814D01*
X121283448Y-47461271D01*
X121312778Y-47497009D01*
X121312779Y-47497011D01*
X121396443Y-47653533D01*
X121396443Y-47653534D01*
X121447963Y-47823373D01*
X121465359Y-48000000D01*
X121447963Y-48176627D01*
X121413616Y-48289853D01*
X121396443Y-48346467D01*
X121326142Y-48477989D01*
X121312778Y-48502991D01*
X121283448Y-48538729D01*
X121200186Y-48640186D01*
X121098729Y-48723448D01*
X121062991Y-48752778D01*
X121062989Y-48752779D01*
X120906467Y-48836443D01*
X120849853Y-48853616D01*
X120736627Y-48887963D01*
X120670443Y-48894481D01*
X120604260Y-48901000D01*
X120515740Y-48901000D01*
X120449558Y-48894482D01*
X120383373Y-48887963D01*
X120270147Y-48853616D01*
X120213533Y-48836443D01*
X120057011Y-48752779D01*
X120057009Y-48752778D01*
X120021271Y-48723448D01*
X119919814Y-48640186D01*
X119836552Y-48538729D01*
X119807222Y-48502991D01*
X119793858Y-48477989D01*
X119723557Y-48346467D01*
X119706384Y-48289853D01*
X119672037Y-48176627D01*
X119654641Y-48000000D01*
X119672037Y-47823373D01*
X119723557Y-47653534D01*
X119723557Y-47653533D01*
X119807221Y-47497011D01*
X119807222Y-47497009D01*
X119836552Y-47461271D01*
X119919814Y-47359814D01*
X120021271Y-47276552D01*
X120057009Y-47247222D01*
X120103782Y-47222221D01*
X120213533Y-47163557D01*
X120270147Y-47146384D01*
X120383373Y-47112037D01*
X120449558Y-47105518D01*
X120515740Y-47099000D01*
X120604260Y-47099000D01*
X120670442Y-47105518D01*
X120670442Y-47105518D01*
G37*
G36*
X118130442Y-47105518D02*
X118196627Y-47112037D01*
X118309853Y-47146384D01*
X118366467Y-47163557D01*
X118476218Y-47222221D01*
X118522991Y-47247222D01*
X118558729Y-47276552D01*
X118660186Y-47359814D01*
X118743448Y-47461271D01*
X118772778Y-47497009D01*
X118772779Y-47497011D01*
X118856443Y-47653533D01*
X118856443Y-47653534D01*
X118907963Y-47823373D01*
X118925359Y-48000000D01*
X118907963Y-48176627D01*
X118873616Y-48289853D01*
X118856443Y-48346467D01*
X118786142Y-48477989D01*
X118772778Y-48502991D01*
X118743448Y-48538729D01*
X118660186Y-48640186D01*
X118558729Y-48723448D01*
X118522991Y-48752778D01*
X118522989Y-48752779D01*
X118366467Y-48836443D01*
X118309853Y-48853616D01*
X118196627Y-48887963D01*
X118130443Y-48894481D01*
X118064260Y-48901000D01*
X117975740Y-48901000D01*
X117909558Y-48894482D01*
X117843373Y-48887963D01*
X117730147Y-48853616D01*
X117673533Y-48836443D01*
X117517011Y-48752779D01*
X117517009Y-48752778D01*
X117481271Y-48723448D01*
X117379814Y-48640186D01*
X117296552Y-48538729D01*
X117267222Y-48502991D01*
X117253858Y-48477989D01*
X117183557Y-48346467D01*
X117166384Y-48289853D01*
X117132037Y-48176627D01*
X117114641Y-48000000D01*
X117132037Y-47823373D01*
X117183557Y-47653534D01*
X117183557Y-47653533D01*
X117267221Y-47497011D01*
X117267222Y-47497009D01*
X117296552Y-47461271D01*
X117379814Y-47359814D01*
X117481271Y-47276552D01*
X117517009Y-47247222D01*
X117563782Y-47222221D01*
X117673533Y-47163557D01*
X117730147Y-47146384D01*
X117843373Y-47112037D01*
X117909558Y-47105518D01*
X117975740Y-47099000D01*
X118064260Y-47099000D01*
X118130442Y-47105518D01*
X118130442Y-47105518D01*
G37*
G36*
X138601000Y-48876000D02*
X136799000Y-48876000D01*
X136799000Y-47074000D01*
X138601000Y-47074000D01*
X138601000Y-48876000D01*
X138601000Y-48876000D01*
G37*
G36*
X135270443Y-47080519D02*
X135336627Y-47087037D01*
X135419041Y-47112037D01*
X135506467Y-47138557D01*
X135645087Y-47212652D01*
X135662991Y-47222222D01*
X135693452Y-47247221D01*
X135800186Y-47334814D01*
X135883448Y-47436271D01*
X135912778Y-47472009D01*
X135912779Y-47472011D01*
X135996443Y-47628533D01*
X136004027Y-47653534D01*
X136047963Y-47798373D01*
X136065359Y-47975000D01*
X136047963Y-48151627D01*
X136040379Y-48176627D01*
X135996443Y-48321467D01*
X135983080Y-48346467D01*
X135912778Y-48477991D01*
X135892261Y-48502991D01*
X135800186Y-48615186D01*
X135698729Y-48698448D01*
X135662991Y-48727778D01*
X135662989Y-48727779D01*
X135506467Y-48811443D01*
X135449853Y-48828616D01*
X135336627Y-48862963D01*
X135270443Y-48869481D01*
X135204260Y-48876000D01*
X135115740Y-48876000D01*
X135049557Y-48869481D01*
X134983373Y-48862963D01*
X134870147Y-48828616D01*
X134813533Y-48811443D01*
X134657011Y-48727779D01*
X134657009Y-48727778D01*
X134621271Y-48698448D01*
X134519814Y-48615186D01*
X134427739Y-48502991D01*
X134407222Y-48477991D01*
X134336920Y-48346467D01*
X134323557Y-48321467D01*
X134279621Y-48176627D01*
X134272037Y-48151627D01*
X134254641Y-47975000D01*
X134272037Y-47798373D01*
X134315973Y-47653534D01*
X134323557Y-47628533D01*
X134407221Y-47472011D01*
X134407222Y-47472009D01*
X134436552Y-47436271D01*
X134519814Y-47334814D01*
X134626548Y-47247221D01*
X134657009Y-47222222D01*
X134674913Y-47212652D01*
X134813533Y-47138557D01*
X134900959Y-47112037D01*
X134983373Y-47087037D01*
X135049557Y-47080519D01*
X135115740Y-47074000D01*
X135204260Y-47074000D01*
X135270443Y-47080519D01*
X135270443Y-47080519D01*
G37*
G36*
X132730443Y-47080519D02*
X132796627Y-47087037D01*
X132879041Y-47112037D01*
X132966467Y-47138557D01*
X133105087Y-47212652D01*
X133122991Y-47222222D01*
X133153452Y-47247221D01*
X133260186Y-47334814D01*
X133343448Y-47436271D01*
X133372778Y-47472009D01*
X133372779Y-47472011D01*
X133456443Y-47628533D01*
X133464027Y-47653534D01*
X133507963Y-47798373D01*
X133525359Y-47975000D01*
X133507963Y-48151627D01*
X133500379Y-48176627D01*
X133456443Y-48321467D01*
X133443080Y-48346467D01*
X133372778Y-48477991D01*
X133352261Y-48502991D01*
X133260186Y-48615186D01*
X133158729Y-48698448D01*
X133122991Y-48727778D01*
X133122989Y-48727779D01*
X132966467Y-48811443D01*
X132909853Y-48828616D01*
X132796627Y-48862963D01*
X132730443Y-48869481D01*
X132664260Y-48876000D01*
X132575740Y-48876000D01*
X132509557Y-48869481D01*
X132443373Y-48862963D01*
X132330147Y-48828616D01*
X132273533Y-48811443D01*
X132117011Y-48727779D01*
X132117009Y-48727778D01*
X132081271Y-48698448D01*
X131979814Y-48615186D01*
X131887739Y-48502991D01*
X131867222Y-48477991D01*
X131796920Y-48346467D01*
X131783557Y-48321467D01*
X131739621Y-48176627D01*
X131732037Y-48151627D01*
X131714641Y-47975000D01*
X131732037Y-47798373D01*
X131775973Y-47653534D01*
X131783557Y-47628533D01*
X131867221Y-47472011D01*
X131867222Y-47472009D01*
X131896552Y-47436271D01*
X131979814Y-47334814D01*
X132086548Y-47247221D01*
X132117009Y-47222222D01*
X132134913Y-47212652D01*
X132273533Y-47138557D01*
X132360959Y-47112037D01*
X132443373Y-47087037D01*
X132509557Y-47080519D01*
X132575740Y-47074000D01*
X132664260Y-47074000D01*
X132730443Y-47080519D01*
X132730443Y-47080519D01*
G37*
M02*
